<?xml version="1.0" encoding="UTF-8" standalone="no"?>
<svg
   id="svg91"
   version="1.1"
   viewBox="0 0 219.075 146.05"
   height="146.05mm"
   width="219.075mm"
   xmlns="http://www.w3.org/2000/svg"
   xmlns:svg="http://www.w3.org/2000/svg"
   xmlns:rdf="http://www.w3.org/1999/02/22-rdf-syntax-ns#"
   xmlns:cc="http://creativecommons.org/ns#"
   xmlns:dc="http://purl.org/dc/elements/1.1/"
   xmlns:i="http://ns.adobe.com/AdobeIllustrator/10.0/">
  <defs
     id="defs85">
    <rect
       x="55.321153"
       y="443.38978"
       width="743.39185"
       height="59.69823"
       id="rect5337" />
    <rect
       x="55.321152"
       y="443.38977"
       width="743.39185"
       height="59.698231"
       id="rect5337-3" />
  </defs>
  <metadata
     id="metadata88">
    <rdf:RDF>
      <cc:Work
         rdf:about="">
        <dc:format>image/svg+xml</dc:format>
        <dc:type
           rdf:resource="http://purl.org/dc/dcmitype/StillImage" />
      </cc:Work>
    </rdf:RDF>
  </metadata>
  <path
     style="vector-effect:none;fill:#a80030;fill-opacity:1;stroke:none;stroke-width:1.10967;stroke-linecap:butt;stroke-linejoin:miter;stroke-miterlimit:4;stroke-dasharray:none;stroke-dashoffset:0;stroke-opacity:1"
     d="m 79.955004,25.659134 c -3.395583,-0.02775 -6.692781,0.448289 -9.477868,1.293148 1.046932,-0.04542 2.363792,-0.108466 2.214951,0.237137 -3.544424,0.901872 -3.259354,0.406408 -4.13474,0.166504 -2.545427,1.071904 -1.869336,1.98942 -3.128174,3.126408 -5.222035,1.601676 -5.688737,2.451834 -9.962226,4.459417 l 0.812315,0.52548 c -3.014654,1.507831 -2.351178,2.918287 -5.078238,5.076725 -0.262366,0.03281 0.363271,-1.203338 1.01918,-2.081244 -1.897087,2.47479 -2.515156,1.652382 -4.14231,4.302249 0.151359,-0.896069 0.469226,-1.700567 0.716453,-2.575952 -1.672564,1.890024 -3.218993,5.292922 -3.299721,3.683426 -1.609494,4.205126 -4.9521,11.191299 -5.133735,16.804101 l -0.698797,-0.517157 c 0.264887,2.921311 -1.031793,10.55002 0.678614,12.971832 l -0.272454,0.436431 c 0.481839,1.859247 1.359747,3.632721 2.01313,5.383489 0.638249,2.444517 -0.731587,1.919791 -0.360749,2.030792 1.826452,5.380963 3.968241,9.293706 5.691259,12.540448 1.354703,0.267409 4.906696,4.873899 8.372914,7.933962 3.940492,4.40467 8.728618,7.89864 13.955695,10.492 5.76442,3.12565 8.307323,2.9869 14.581331,3.67812 0.373363,0.0504 0.739158,0.0757 1.102428,0.10101 2.139269,0.20182 4.061582,0.31787 5.650898,0.56257 -0.388499,-0.15137 -1.178112,-0.17659 -1.760858,-0.22705 -0.607978,-0.0757 -1.054498,-0.17658 -0.837546,-0.444 1.321907,-0.0504 2.424335,-0.17659 3.746243,-0.22705 0.789611,-0.0505 1.319381,-0.0505 1.904655,-0.0252 1.094858,0.0252 5.436467,-0.22705 7.045966,-1.51868 0.41625,-0.0757 0.47174,0.0252 0.34056,0.20182 -0.12613,0.17659 -0.43138,0.4112 -0.72906,0.62564 -0.27246,0.20181 -0.54996,0.38092 -0.5651,0.45408 -0.0252,0.0757 0.22705,0.0505 0.97378,-0.22705 0.47932,-0.35065 0.7997,-0.72906 1.07468,-1.08476 0.28507,-0.36832 0.51968,-0.71141 0.86025,-1.06207 0.35065,-0.36579 0.75681,-0.6887 1.35974,-1.0444 0.61302,-0.36327 1.37237,-0.73159 2.47227,-1.24371 0.10101,0.1009 0.0252,0.25228 -0.1008,0.3986 -0.12619,0.15136 -0.32039,0.29263 -0.4541,0.40363 -0.12618,0.10092 -0.20182,0.17659 -0.1008,0.17659 0.1008,0 0.39606,-0.0504 0.98889,-0.28002 0.10091,-0.6988 0.71144,-1.50859 1.53887,-2.34614 0.22705,-0.22704 0.46923,-0.47931 0.73159,-0.72149 1.27651,-1.18568 2.83807,-2.331 4.30126,-3.37289 0.86528,-0.63572 1.70283,-1.22856 2.47478,-1.74824 0.7543,-0.50707 1.39001,-0.90313 1.76086,-1.09234 0.0252,0.12613 0.0252,0.25227 0.0252,0.36832 0,0.12612 0.0252,0.25227 0.0252,0.36831 1.35724,-0.44399 2.40415,-1.0217 3.29469,-1.5212 0.88294,-0.49445 1.60445,-0.90566 2.26287,-0.98638 0.17659,-0.0252 0.34561,-0.0252 0.51968,-0.0504 0.56258,-0.0504 1.14784,-0.15136 1.74321,-0.252271 0.77951,-0.151359 1.58931,-0.330475 2.37893,-0.544907 1.01917,-0.176589 2.06105,-0.413727 3.06256,-0.476793 0.98892,-0.05045 1.89456,0.02522 2.56309,0.484361 0.22705,-0.100898 0.46924,-0.201817 0.7089,-0.295157 0.22703,-0.100908 0.47428,-0.201819 0.71394,-0.307775 0.25982,0.0757 0.51715,0.126128 0.77951,0.201819 0.25732,0.0757 0.52219,0.151361 0.78959,0.252271 -0.0254,-0.07569 -0.0504,-0.151358 -0.0759,-0.227043 -0.0254,-0.0757 -0.0504,-0.151361 -0.0757,-0.227047 0.22706,0.02523 0.45914,0.05045 0.66601,0.0757 1.09738,0.126125 1.77346,0.277498 2.17206,0.44652 0.48689,0.201819 0.64329,0.451566 0.80474,0.807272 0.12619,0.25732 0.22705,0.60798 0.6988,0.93341 0.47679,0.33552 1.23362,0.60293 2.69426,0.82997 0.12618,0.0252 0.26993,0.0504 0.41374,0.0757 0.15146,0.0252 0.29514,0.0252 0.45154,0.0504 -0.12618,-0.17659 -0.22703,-0.32795 -0.41371,-0.4894 -0.17656,-0.15137 -0.41876,-0.32543 -0.78204,-0.49194 -0.0504,-0.0252 -0.0759,-0.0504 -0.12618,-0.0757 -0.0504,-0.0252 -0.10081,-0.0505 -0.15145,-0.0757 0.0254,-0.0252 0.0504,-0.0252 0.1008,-0.0252 0.0254,0 0.0759,-0.0252 0.12618,-0.0252 0.34814,-0.0504 1.00405,0.0252 1.77349,0.20182 0.6887,0.15136 1.43036,0.3658 2.13675,0.6332 0.0759,0.0252 0.17656,0.0757 0.26742,0.10093 0.0759,-0.10093 0.12617,-0.20182 0.2018,-0.31029 0.0759,-0.10093 0.12617,-0.20182 0.20181,-0.31534 0.69375,0.15136 1.13521,0.37084 1.45811,0.57265 0.3305,0.20182 0.55502,0.40869 0.8401,0.5878 -0.49699,-0.51212 -0.44906,-0.69627 -0.0504,-0.68114 0.40364,0.0252 1.12009,0.22705 1.91981,0.49193 0.89809,0.3103 1.72807,0.64077 2.47984,0.94855 0.25479,0.1009 0.49949,0.20181 0.7114,0.29011 0.39102,0.15136 0.69627,0.2775 0.88042,0.33048 -0.1008,0.0757 -0.22703,0.17659 -0.32291,0.25984 -0.10081,0.0757 -0.22703,0.17659 -0.31785,0.26236 0.51462,-0.15136 1.14027,-0.10093 1.91222,0.1009 0.77952,0.20181 1.67003,0.52977 2.76237,0.97377 0,0.0504 0.10081,0.5222 0.10081,0.56509 0.025,0.15136 0.0759,0.42886 0.10081,0.57014 0.27749,0.0504 0.63069,0.15136 1.01162,0.3002 0.37841,0.15136 0.78205,0.33552 1.16296,0.53986 0.75683,0.40616 1.43544,0.89557 1.63222,1.35218 0.12617,-0.17659 0.25982,-0.35066 0.38596,-0.52977 0.12619,-0.17659 0.25228,-0.3557 0.37336,-0.53482 0.80475,0.999 1.27147,1.16298 1.71043,1.3093 0.0504,0.0252 0.12618,0.0504 0.17657,0.0504 0.62563,0.22704 0.78709,0.333 2.22756,1.16045 -0.25228,0.0757 -0.48438,0.12612 -0.72907,0.17659 -0.25229,0.0504 -0.49698,0.1009 -0.75177,0.12612 1.13522,0.22705 2.14936,0.1009 3.06761,-0.0252 0.59789,-0.0757 1.11505,-0.15136 1.78107,-0.20181 0.43138,-0.0252 0.88293,-0.0504 1.41019,-0.0504 1.6978,0.22704 2.66399,0.34561 3.63524,0.4894 0.89304,0.12613 2.05601,0.26994 3.84968,-0.0252 -1.49597,-0.25227 -2.98692,-0.63572 -4.41476,-1.04693 -1.36229,-0.39102 -2.71194,-0.81988 -3.72607,-1.00404 -0.37336,-0.10093 -0.73665,-0.22705 -1.08982,-0.35066 -1.64735,-0.57266 -3.15088,-1.34209 -4.53081,-2.19981 -0.20182,-0.12613 -0.39352,-0.22704 -0.59284,-0.36075 -1.29413,-0.80728 -2.58326,-1.71293 -3.87489,-2.5202 -1.01918,-0.65339 -2.109,-1.32695 -3.27449,-1.99043 -0.92583,-0.52977 -1.89458,-1.051975 -2.91629,-1.553998 -2.09131,-1.029269 -4.27096,-1.886994 -6.52373,-2.57065 -0.66853,-0.201819 -1.34209,-0.391024 -2.01818,-0.562568 -2.70183,-0.668522 -5.31034,-1.049453 -7.7498,-1.299201 -1.23614,-0.151361 -2.39154,-0.227046 -3.44353,-0.290115 -1.20334,-0.05045 -2.3209,-0.05045 -3.3325,-0.02522 -1.88448,0.0757 -3.58227,0.257317 -5.17411,0.580225 h -0.57266 -0.54489 c -0.8426,0.126128 -1.82899,0.227045 -2.62112,0.227045 -0.80224,0.02522 -1.45812,-0.0757 -1.70536,-0.358226 -0.15135,0.0757 -0.33047,0.126125 -0.5096,0.201817 -0.7896,0.292637 -1.76588,0.615544 -2.92129,1.004045 -1.4203,0.479317 -3.07522,1.05702 -4.9395,1.783563 -0.0757,-0.0757 -0.0252,-0.02523 0.0252,0.100898 0.0252,0.126126 -0.0252,0.340567 -0.28001,0.602929 -0.0759,0.0757 -0.20183,0.151361 -0.34059,0.252274 -0.15135,0.0757 -0.31785,0.176588 -0.52976,0.264885 -0.67861,0.201818 -1.39506,0.370839 -2.12162,0.547432 -0.72653,0.176585 -1.4657,0.363265 -2.19224,0.620585 -0.0252,0.0757 -0.0757,0.12613 -0.10081,0.20182 -0.0251,0.0757 -0.0504,0.12613 -0.10101,0.20182 -0.56761,-0.0252 -1.30678,0.22704 -2.13424,0.62563 -0.46165,0.22705 -0.94602,0.48941 -1.44551,0.78205 -0.32038,0.15136 -0.63825,0.32038 -0.95864,0.48688 -0.75177,0.39102 -1.43038,0.75682 -2.06611,1.04945 -0.62311,0.29516 -1.15288,0.48184 -1.56662,0.5323 0.0756,0.0757 0.15136,0.15136 0.22705,0.25227 0.0757,0.0757 0.15136,0.15136 0.22705,0.25227 -1.47075,0.50203 -2.896089,1.3875 -4.369354,1.7533 -0.100897,0.0252 -0.227044,0.0504 -0.332998,0.0757 -1.326953,0.46922 -2.860766,0.44147 -4.038879,0.10092 0.297681,0.37841 -0.02522,0.51212 -0.764383,0.51212 -0.17659,0 -0.37084,-0.0252 -0.58275,-0.0252 -0.648337,-0.0757 -1.415246,-0.22705 -2.111518,-0.29516 0.262365,0.22704 0.539865,0.39607 0.809795,0.57266 0.227045,0.15136 0.454089,0.29011 0.681135,0.45409 0.05045,0.0252 0.0757,0.0757 0.126127,0.1009 -0.05045,-0.0252 -0.126127,-0.0252 -0.17659,-0.0252 -1.051974,-0.15136 -1.43795,-0.12612 -2.048449,-0.0252 -0.532295,0.0757 -1.213429,0.20182 -2.389019,-0.20182 -0.07569,-0.0504 -0.151359,-0.0504 -0.227043,-0.12612 -0.0757,-0.0504 -0.151361,-0.0757 -0.227047,-0.12613 -0.05045,-0.12612 0.151361,-0.17659 0.444001,-0.20182 0.332998,-0.0252 0.703839,-0.0252 1.036838,-0.0504 -1.203339,-0.12612 -1.690224,-0.22704 -1.904654,-0.15136 -0.176591,0.0504 0.05045,0.20182 0.423815,0.40616 0.02523,0.0252 0.02523,0.0252 0.02523,0.0504 0,0.0252 0,0.0252 0.02523,0.0504 0,0 0.126127,0.0252 0.227046,0.0757 0.126127,0.0252 0.227045,0.0757 0.227045,0.0757 0.408679,0.15136 0.900611,0.37589 1.223519,0.55248 0.335522,0.17659 0.547432,0.33804 0.461658,0.41372 -1.377405,0.12613 -2.240177,-0.34309 -2.97429,-0.70131 -0.779519,-0.37841 -1.490927,-0.68366 -2.936446,-0.55248 0.05045,-0.17659 0.126128,-0.32795 0.176591,-0.48941 0.05045,-0.15136 0.126127,-0.32291 0.201817,-0.48184 -1.642291,0.17659 -3.002039,0.1009 -4.185195,0.0757 -0.126126,0 -0.227047,0 -0.345613,0 -5.716489,-1.85168 -1.634723,2.81536 -8.960708,-0.98386 l 0.355705,-0.444 c -0.796987,-0.15156 -1.50587,-0.48708 -2.270255,-0.74188 l -1.639873,-1.9098 C 61.599352,102.29641 55.948455,93.966387 52.383849,89.864442 51.008967,88.12124 50.71633,85.093974 49.152241,81.453689 l -0.741679,0.524726 c -0.898089,-3.319902 -1.566609,-15.381035 1.400111,-17.694368 -0.327954,-2.883472 -0.264885,0.252272 -0.913225,0.100897 -0.100897,-5.713963 1.637245,-5.744238 3.009606,-8.160752 0.829977,-3.255824 -1.281543,2.224788 -1.248746,0.322907 2.631198,-4.4357 0.451566,-4.555277 4.603968,-9.621154 0.761859,-0.211907 -0.701318,1.554501 -0.746727,2.318129 1.50102,-4.383228 8.201368,-10.4254 14.250854,-12.654475 7.043436,-2.554255 19.071775,-1.317366 25.52742,4.709668 l 0.307771,-0.17659 c 2.358744,2.602692 5.729096,4.970014 7.492486,8.47685 l -0.65844,-1.837803 c 1.96522,1.825192 2.26289,3.370105 3.32747,5.563864 l -0.50959,1.518678 c 0.78458,2.439218 1.10748,0.940975 1.79618,2.815105 -0.15135,2.44704 -0.32794,7.527802 -0.94854,8.594912 -0.63067,0.602929 -0.30777,-1.142793 -0.45156,-1.55652 -0.54491,2.923836 0.39354,3.17863 -1.53382,6.554031 l -0.25227,-0.100908 c -3.461179,9.611573 -18.635346,12.598474 -26.829146,4.162494 0.456612,0.597882 0.201817,0.595361 0.262362,0.951064 -4.614056,-3.94049 -6.596914,-10.547499 -4.452603,-16.205962 1.927359,-5.703622 7.17462,-9.403951 12.454677,-9.585839 -3.46622,-0.466198 -8.539413,0.43744 -11.887064,4.169808 -3.410722,3.523988 -4.452605,8.975591 -3.140789,12.4519 -0.660952,2.896084 2.328472,6.296715 2.139268,7.65646 6.614575,8.700868 12.923901,9.006116 21.897221,7.820437 0.678612,-0.126127 0.885476,-0.02523 0.991432,0.151359 0,0 0,-0.02523 0,-0.02523 8.229122,-3.756333 13.874972,-10.486953 14.901712,-19.82607 0.29265,-2.348654 -0.0251,-5.534851 0.37843,-5.976073 0.31532,1.571403 0.56003,0.347881 0.9107,1.659698 -0.80476,-3.43065 -1.43544,-0.290114 -2.30072,-5.014919 l 1.69275,0.267409 c -2.02829,-1.4932 -1.71042,-6.081274 -4.74273,-8.614085 -0.2876,-1.413229 1.54138,0.289607 2.90365,2.84336 -1.34209,-2.999517 -2.30072,-2.739927 -3.88247,-4.743474 0.83249,0.373614 1.77347,0.710147 2.5656,1.19123 -2.63876,-1.558539 -2.98185,-4.084288 -3.93039,-5.576225 -0.38598,0.148847 0.10091,1.759852 -2.51264,-0.587794 -1.057019,-1.097131 -0.26488,-0.864285 -0.423819,-1.237395 -0.33047,0.0883 -1.7104,-0.181633 -3.630192,-1.427608 -0.126127,-0.615543 1.617062,0.311556 2.003042,0.03281 -1.470747,-1.043904 -2.800221,-1.635481 -3.781561,-2.585538 -3.00456,-1.059291 -0.0757,0.616049 -2.00304,0.258074 -4.265924,-2.191992 0.100898,-1.607732 -1.228566,-3.201839 3.839582,0.70384 8.256867,3.333274 10.126206,4.37995 -2.091339,-1.464691 -4.321423,-2.682409 -6.60953,-3.731105 0.681133,-0.274724 -4.427377,-2.890533 -0.48184,-1.723018 -4.114561,-2.355467 -9.293708,-3.395584 -14.258424,-3.416523 z m 14.306351,57.038231 c 0,0.02523 0.02523,0.0757 0.05045,0.100898 -0.02522,-0.02523 -0.02522,-0.05045 -0.05045,-0.100898 z m 0.05045,0.100898 c 0.07569,0.151361 0.126127,0.340569 0.325432,0.464182 -2.474791,0.898087 -5.214466,1.248746 -7.946573,1.059543 1.662473,0.312817 3.350172,0.544905 5.042918,0.355703 -2.129176,1.054497 -7.573208,-0.126127 -8.327504,0.348135 7.653939,2.167018 19.737782,-2.512629 22.293302,-8.743752 -1.95763,2.108995 -4.57118,4.65442 -7.696829,6.094894 -1.324435,0.42634 -3.367837,0.69627 -3.690746,0.421295 z M 53.093066,34.902891 c -1.004045,1.188959 -2.040884,2.335283 -2.981859,3.549723 l 0.542385,-0.409944 c 0.502023,-1.080986 1.78861,-2.106726 2.439474,-3.139779 z m -0.252273,2.396584 c -0.126128,-0.02775 -0.653386,0.396572 -1.864293,1.53886 0.739157,-0.514887 1.551474,-1.155153 1.596884,-0.900863 0.227045,-0.367307 0.37084,-0.62942 0.267409,-0.637997 z m -0.267409,0.636486 v 0 l -0.348135,0.532544 0.373361,-0.448035 z m 55.113906,6.198831 0.26236,0.605705 c 1.92483,2.557533 3.46118,5.460431 4.47532,8.56489 -1.01666,-3.327467 -2.64887,-6.44757 -4.73768,-9.170595 z m -16.263996,9.226095 c -0.320384,-0.02523 -0.126126,0.64834 0.227047,1.236135 0.332999,-0.100898 1.879427,1.097383 1.24118,0.02523 -0.799704,-0.915749 -1.256315,-1.256316 -1.475792,-1.271451 z m 3.47379,5.143577 c 0.620587,0.935929 0.870339,2.025744 1.180633,3.133221 -0.809794,3.572173 -1.024226,-0.6105 -1.654905,-1.654905 0.610498,5.317896 1.453087,2.111516 2.194768,3.017174 -0.264886,-1.662474 -0.809795,-3.226561 -1.720496,-4.49549 z m 1.720496,4.49549 c 0,0 0,0 0,0 v 0 c 0,0 0,0 0,0 z m -1.97277,4.813351 c -0.716453,1.18568 -1.682654,2.161974 -2.747242,3.049971 -1.15793,1.188203 0.822406,0.383454 2.588312,-0.913223 0.100928,-0.754296 0.151358,-1.468224 0.151358,-2.136748 z M 38.388121,80.262938 c -0.252273,0.02522 -0.330479,0.736636 -0.683658,0.489408 1.755814,1.501021 0.993953,3.496492 1.463178,0.835021 -0.401112,-1.044409 -0.623112,-1.331998 -0.77952,-1.324429 z m -0.683658,0.489408 c -0.02523,-0.02522 -0.05045,-0.05045 -0.100908,-0.07569 0.02523,0.02522 0.05045,0.05045 0.100908,0.07569 z m 42.298471,2.013132 c 1.208386,0.691226 2.555519,0.976292 3.879947,1.31686 l -1.425337,-0.70384 c -0.860248,-0.05045 -1.644815,-0.345612 -2.45461,-0.61302 z m 0.70384,2.507584 0.655907,0.986387 c 1.818883,0.274975 3.564605,0.799699 5.36583,0.630677 -2.088813,-0.673565 -3.183675,-0.716451 -6.021737,-1.617064 z m -39.021455,2.071156 c 0.282544,2.313334 1.107473,2.043403 1.88195,3.032309 -0.759341,-1.495971 -1.369838,-2.237651 -1.88195,-3.032309 z m 78.060571,6.977849 c -0.25226,0 -0.58525,0.126126 -1.17306,0.572657 0.3103,-0.05045 0.61302,-0.0757 0.92333,-0.100928 0.34812,-0.05045 0.74166,-0.126127 1.20334,-0.282546 -0.39607,0.02523 -0.58781,-0.126128 -0.85018,-0.17659 -0.0252,0 -0.0756,-0.02522 -0.1008,-0.02522 z m -4.55855,1.099905 c -0.0252,0 -0.0504,0.02522 -0.12618,0.05045 -0.26235,0.126125 -0.90312,0.378408 -1.65237,0.151361 v 0 c 0.12618,0.05045 0.1009,0.201815 0.0252,0.325428 -0.0757,0.126128 -0.15133,0.2775 -0.12618,0.36075 0.0252,0.05045 0.1008,0.0757 0.27247,0.0757 0.17658,-0.02522 0.43642,-0.0757 0.83501,-0.201819 0.56762,-0.602931 0.79213,-0.776997 0.75178,-0.774475 z m -1.776,0.201818 c 0,0 0,0 0,0 h -0.0252 c 0,0 0.0252,0 0.0252,0.02523 z m -0.0252,0 c -0.0252,-0.02522 -0.0252,-0.02522 -0.0252,-0.02522 -0.0253,-0.02523 -0.0253,-0.02523 -0.0504,-0.02523 0.0253,0.02523 0.0253,0.02523 0.0253,0.02523 z m 0.0252,0 c 0,0 0,0 0,0 z m -29.064277,9.67716 v 0 c 0.02523,0 0.02523,0.0252 0.05045,0.0252 -0.02522,0 -0.02522,-0.0252 -0.05045,-0.0252 z m 0.05045,0.0252 c 0.418773,0.27498 0.940977,0.45662 1.458133,0.63321 0.532295,0.17659 1.051974,0.34561 1.440474,0.62059 h 0.269931 0.267409 c -0.562565,-0.17659 -1.145312,-0.36327 -1.725538,-0.57013 -0.567613,-0.20182 -1.14027,-0.42634 -1.710405,-0.68366 z"
     id="path322" />
  <path
     id="path324"
     d="m 137.28808,34.215048 v 1.86207 h -1.66921 v 1.811346 h 1.66921 v 1.938158 c -2.05849,0.454163 -3.52712,2.264919 -3.54486,4.367343 v 0.147444 h -1.76943 v 2.318005 h 2.00833 v 12.39512 h -4.33519 V 47.29937 h 0.17685 0.4394 v -2.438916 h -1.44211 v 1.253373 h -1.17078 v -1.253373 h -1.43328 v 1.253373 h -1.16196 v -1.253373 h -1.43917 v 1.253373 h -1.16784 v -1.253373 h -1.43918 v 2.438916 h 0.62816 v 11.755164 h -1.10592 v 1.678046 h 35.64889 v -1.680993 h -1.09707 V 47.29937 h 0.17706 0.43647 v -2.438913 h -1.42149 v 1.250424 h -1.17079 v -1.250424 h -1.43621 v 1.250424 h -1.1649 v -1.250424 h -1.43918 v 1.250424 h -1.16196 v -1.250424 h -1.44505 v 2.438916 h 0.63996 v 11.752218 h -4.31749 V 46.656468 h 1.96409 v -2.318005 h -1.76946 c -0.11785,-2.164352 -1.37726,-4.057684 -3.53894,-4.523644 V 37.87961 h 1.6692 v -1.80869 h -1.6692 v -1.862071 z m -11.64901,3.517113 -0.90537,1.516434 h -1.79012 l 0.89654,1.518794 -0.89654,1.512895 h 1.79012 l 0.90537,1.524398 0.8877,-1.524398 h 1.80485 l -0.89948,-1.512895 0.89948,-1.518794 h -1.80485 z m 25.43611,0 -0.89063,1.516434 h -1.80189 l 0.91126,1.518794 -0.91126,1.512895 h 1.80189 l 0.89063,1.524398 0.90244,-1.524398 h 1.79306 l -0.89359,-1.512895 0.89359,-1.518794 h -1.79306 z m -30.56167,23.982486 v 2.441867 h 0.8582 c -0.61636,6.800653 -3.07002,17.877524 -5.44996,24.291843 0.14751,0.02948 0.30377,0.05898 0.43056,0.05898 4.37355,-2.03784 9.96211,-3.403278 16.03729,-3.92527 v -9.96211 c 0,-3.482903 2.80461,-6.28751 6.28454,-6.28751 3.48587,0 6.28753,2.804607 6.28753,6.28751 v 10.124305 c 6.74462,0.749076 12.74313,2.548035 17.00753,5.096068 -2.60997,-7.128006 -5.89526,-18.703276 -6.58832,-25.698573 h 0.70191 V 61.70284 h -2.99338 v 1.250423 h -2.43298 v -1.250426 h -2.99928 v 1.250423 h -2.433 v -1.250423 h -2.98747 v 1.250423 h -2.39173 v -1.250423 h -3.00219 v 1.250423 h -2.37698 v -1.250423 h -3.00221 v 1.250423 h -2.43006 v -1.250423 h -2.99038 v 1.250423 h -2.49793 v -1.250423 z"
     style="vector-effect:none;fill:#f57900;fill-opacity:1;stroke:none;stroke-width:1.50613;stroke-linecap:butt;stroke-linejoin:miter;stroke-miterlimit:4;stroke-dasharray:none;stroke-dashoffset:0;stroke-opacity:1" />
  <path
     d="m 38.15187,136.30466 h 5.741019 v -0.76685 c -1.077736,-0.0829 -1.865313,-0.18654 -1.865313,-0.95339 0,-0.18653 0.02073,-2.88087 0.04145,-5.94827 h 8.538989 c 0.04145,3.08813 0.04145,5.84465 0.04145,5.94827 0,0.78758 -0.829028,0.89121 -1.865313,0.95339 v 0.76685 h 5.741019 v -0.76685 c -1.077736,-0.0829 -1.865313,-0.18654 -1.865313,-0.95339 0,-0.18653 0.04145,-9.01568 0.14508,-11.97945 0.02073,-0.66322 0.455966,-0.74613 1.430074,-0.8083 l 0.290159,-0.0207 v -0.76685 h -5.741019 v 0.76685 l 0.29016,0.0207 c 0.974108,0.0622 1.409348,0.14508 1.430074,0.8083 0.04145,1.4508 0.0829,3.31611 0.103628,5.13997 h -8.518263 c 0.02073,-2.03112 0.06218,-4.02078 0.0829,-5.13997 0.02073,-0.66322 0.455965,-0.74613 1.430073,-0.8083 l 0.29016,-0.0207 v -0.76685 H 38.15187 v 0.76685 l 0.29016,0.0207 c 0.974108,0.0622 1.409348,0.14508 1.430073,0.8083 0.124354,4.12441 0.14508,11.81365 0.14508,11.97945 0,0.78758 -0.829028,0.89121 -1.865313,0.95339 z"
     style="font-size:20.7257px;line-height:125%;font-family:Prociono;-inkscape-font-specification:Prociono;text-align:center;letter-spacing:0.264583px;word-spacing:0px;text-anchor:middle;white-space:pre;fill:#ff6600;stroke-width:0.470775px"
     id="path52974" />
  <path
     d="m 63.929771,133.65177 c 0,-1.05701 0.0829,-2.7358 0.0829,-5.47159 0,-1.01556 -0.04145,-2.77724 -3.233209,-2.77724 -4.331672,0 -3.917158,3.10885 -4.000061,3.81353 l 0.849754,0.0829 c 0.538868,-1.94822 0.746125,-2.56999 2.21765,-2.56999 0.974108,0 2.259101,0.37307 2.259101,1.78241 0,0.24871 -0.02072,0.74613 -0.02072,1.24355 -3.150307,0.70467 -5.844648,0.53886 -5.844648,4.04151 0,1.30572 0.455966,2.71506 2.031119,2.71506 1.92749,0 2.155473,-0.43524 3.937883,-1.59587 0.124354,0.2487 0.414514,1.49225 0.870479,1.49225 0.14508,0 1.595879,-0.4767 1.595879,-0.4767 0.14508,-0.0414 0.186532,-0.0829 0.186532,-0.1658 0,-0.37306 -0.932657,-1.22282 -0.932657,-2.11402 z m -5.823922,-0.0622 c 0,-1.94822 0.497417,-1.86531 3.979335,-3.02595 0.02072,0.62177 0.02072,1.22281 0.02072,1.76168 0,0.8083 0,1.63733 -0.145079,1.76169 -0.746126,0.62177 -1.699508,1.03628 -2.466359,1.03628 -0.787576,0 -1.388622,-0.43524 -1.388622,-1.5337 z"
     style="font-size:20.7257px;line-height:125%;font-family:Prociono;-inkscape-font-specification:Prociono;text-align:center;letter-spacing:0.264583px;word-spacing:0px;text-anchor:middle;white-space:pre;fill:#ff6600;stroke-width:0.470775px"
     id="path52976" />
  <path
     d="m 66.246171,126.08689 0.04145,0.78757 c 0.43524,0.0414 0.746125,0.0414 0.932657,0.20726 0.290159,0.24871 0.331611,0 0.331611,7.64778 0,0.53887 -0.269434,0.80831 -1.202091,0.87048 v 0.70468 h 4.228043 v -0.70468 c -1.015559,-0.29016 -1.160639,0.0207 -1.160639,-2.27982 0,-1.16064 0.06218,-2.92233 0.14508,-5.61667 0.43524,-0.29016 1.450799,-0.76685 2.051844,-0.76685 1.554428,0 1.844587,0.51814 1.844587,1.30572 0,1.16064 -0.02072,1.76168 -0.02072,5.84465 0,1.16064 -0.06218,1.4508 -1.119188,1.51297 v 0.70468 h 4.228043 v -0.70468 c -0.994834,-0.20725 -1.181365,0.0207 -1.181365,-2.342 0,-0.99483 0,-2.83942 0.02073,-5.53376 0.393788,-0.20726 1.575153,-0.78758 2.07257,-0.78758 1.823861,0 1.865313,0.66322 1.865313,1.98967 0,2.61144 0.02072,4.12441 0.02072,5.07779 0,1.30572 -0.124354,1.53371 -1.181365,1.59588 v 0.70468 h 4.228043 v -0.70468 c -1.036285,-0.0622 -1.222816,0.0415 -1.222816,-2.342 0,-1.11919 0.04145,-2.83942 0.04145,-5.40941 0,-0.66322 -0.497416,-2.44563 -2.342004,-2.44563 -1.388622,0 -2.756518,0.95338 -3.461192,1.47152 -1.119187,-1.18136 -1.823861,-1.47152 -2.590712,-1.47152 -1.01556,0 -2.114022,0.70467 -3.295387,1.36789 v -0.29015 c 0,-0.84976 -0.103628,-1.09847 -0.476691,-1.09847 -0.559594,0 -1.305719,0.53887 -2.797969,0.70468 z"
     style="font-size:20.7257px;line-height:125%;font-family:Prociono;-inkscape-font-specification:Prociono;text-align:center;letter-spacing:0.264583px;word-spacing:0px;text-anchor:middle;white-space:pre;fill:#ff6600;stroke-width:0.470775px"
     id="path52978" />
  <path
     d="m 82.925494,120.28369 0.04145,0.68395 c 1.512976,0 1.347171,0 1.450799,1.86531 0.103629,1.86531 0.04145,5.61667 0.0829,12.4976 0.580319,0.8083 2.528535,1.28499 3.461192,1.28499 0.725399,0 1.450799,-0.0622 2.010393,-0.31088 1.119188,-0.49742 2.279827,-1.78241 2.404181,-1.94822 0.683948,-1.03628 0.891205,-2.342 0.891205,-4.14514 0,-2.75652 -0.538868,-4.82909 -3.772077,-4.82909 -0.414514,0 -0.953383,0.12436 -3.191758,1.34717 l 0.0829,-5.74102 v -0.8912 c 0,-0.22798 -0.186532,-0.31089 -0.352337,-0.31089 -0.227983,0 -1.077737,0.31089 -3.108855,0.49742 z m 3.336837,11.60639 c 0,-0.70467 0,-1.65805 0.02073,-2.9016 v -1.36789 c 1.49225,-0.78758 1.844587,-0.8083 2.300553,-0.8083 1.119188,0 2.839421,0.55959 2.839421,3.56482 0,0.14508 -0.0829,2.52853 -0.352337,3.39901 -0.393788,1.28499 -1.015559,1.40935 -1.968942,1.40935 -1.077736,0 -2.321278,-0.51814 -2.632164,-0.91193 -0.165805,-0.16581 -0.207257,-0.58032 -0.207257,-2.38346 z"
     style="font-size:20.7257px;line-height:125%;font-family:Prociono;-inkscape-font-specification:Prociono;text-align:center;letter-spacing:0.264583px;word-spacing:0px;text-anchor:middle;white-space:pre;fill:#ff6600;stroke-width:0.470775px"
     id="path52980" />
  <path
     d="m 104.04013,133.67249 c 0,-1.51297 0.1658,-3.44046 0.1658,-7.93794 0,-0.24871 -0.20725,-0.31089 -0.37306,-0.31089 -0.22798,0 -1.05701,0.29016 -3.10885,0.49742 l 0.0414,0.68395 h 0.66322 c 0.66322,0 0.78758,0 0.78758,1.72023 0,0.97411 -0.0415,2.50781 -0.0415,4.91199 0,0.6425 -0.0414,0.74613 -0.84975,1.16064 -0.39379,0.20726 -1.533701,0.45597 -2.114021,0.45597 -0.393788,0 -1.036285,-0.35234 -1.243542,-0.95338 -0.165805,-0.45597 -0.207257,-1.18137 -0.207257,-2.11403 0,-1.28499 0.0829,-3.7928 0.0829,-6.0519 0,-0.24871 -0.207257,-0.31089 -0.373063,-0.31089 -0.227982,0 -1.119187,0.35234 -2.943049,0.5596 l 0.04145,0.70467 c 1.243542,0.0207 1.347171,-0.0622 1.347171,3.17103 v 1.96895 c 0,0.87048 0.103628,2.23837 0.207257,2.56998 0.310885,1.22282 1.388622,2.0933 2.36273,2.0933 0.393788,0 1.927494,-0.20726 3.834254,-1.55443 0.12436,0.24871 0.41452,1.49225 0.87048,1.49225 0.14508,0 1.59588,-0.47669 1.59588,-0.47669 0.14508,-0.0414 0.18653,-0.0829 0.18653,-0.16581 0,-0.37306 -0.93265,-1.22281 -0.93265,-2.11402 z"
     style="font-size:20.7257px;line-height:125%;font-family:Prociono;-inkscape-font-specification:Prociono;text-align:center;letter-spacing:0.264583px;word-spacing:0px;text-anchor:middle;white-space:pre;fill:#ff6600;stroke-width:0.470775px"
     id="path52982" />
  <path
     d="m 106.37727,136.30466 h 5.8032 v -0.6425 c -1.90677,-0.26943 -2.32128,-0.29016 -2.32128,-1.24354 0,-0.8083 0.0207,-4.5182 0.0207,-5.61667 0,-1.24354 1.63733,-1.78241 2.0933,-1.78241 0.51814,0 0.97411,0.39379 1.05701,1.55443 h 0.74613 c 0.1658,-1.03628 0.33161,-1.76168 0.33161,-2.23837 0,-0.6425 -0.31089,-0.87048 -1.34717,-0.87048 -0.62177,0 -1.5337,0.45596 -2.88088,1.76168 0,0 -0.0207,-0.41451 -0.0207,-0.78758 0,-0.84975 -0.12436,-1.09846 -0.47669,-1.09846 -0.58032,0 -1.30572,0.53887 -2.79797,0.70468 l 0.0414,0.78757 c 1.32644,0.12436 1.34717,-0.22798 1.34717,5.69957 v 0.68395 c 0,2.2591 -0.0622,2.21765 -1.59588,2.38345 z"
     style="font-size:20.7257px;line-height:125%;font-family:Prociono;-inkscape-font-specification:Prociono;text-align:center;letter-spacing:0.264583px;word-spacing:0px;text-anchor:middle;white-space:pre;fill:#ff6600;stroke-width:0.470775px"
     id="path52984" />
  <path
     d="m 114.57978,138.02489 c 0,2.01039 2.65288,2.50781 4.24876,2.50781 4.04152,0 5.38869,-2.07257 5.38869,-3.46119 0,-1.07774 -0.91193,-1.96894 -1.49225,-2.19693 -0.41452,-0.1658 -1.78241,-0.20725 -1.88604,-0.20725 h -2.46636 c -0.51814,0 -0.89121,-0.31089 -0.89121,-0.70468 0,-0.51814 0.5596,-0.8912 1.69951,-1.18136 1.07774,-0.22798 1.86531,-0.51814 2.61144,-0.95338 0.87048,-0.80831 1.20209,-1.55443 1.20209,-2.71507 0,-0.6425 -0.18653,-1.78241 -0.41451,-2.11402 h 1.63733 v -0.87048 l -0.12436,-0.12436 c -0.62177,0.14508 -1.47152,0.24871 -2.01039,0.26944 -0.91193,-0.76685 -1.78241,-0.82903 -2.23838,-0.82903 -2.1762,0 -3.95861,1.80314 -4.22804,2.36273 -0.26943,0.60105 -0.35234,1.38862 -0.35234,1.90676 0,0.16581 0,0.31089 0.0207,0.39379 0.24871,1.34717 0.76685,1.90677 2.15547,2.52854 -1.78241,0.53887 -1.84459,1.18136 -1.84459,1.49225 0,0.60104 0.60105,0.97411 1.63733,1.11919 -2.48708,1.05701 -2.65288,2.11402 -2.65288,2.77724 z m 1.78241,-0.60105 c 0,-1.32644 1.40934,-1.74095 3.44046,-1.74095 1.86531,0 2.42491,0.76685 2.42491,1.57515 0,1.38862 -0.91193,2.46636 -3.04668,2.46636 -1.24354,0 -2.81869,-0.97411 -2.81869,-2.30056 z m 0.8083,-7.83431 c 0,-2.27983 0.60104,-2.88087 1.5337,-2.88087 0.0829,0 0.18653,0 0.29016,0.0207 1.57515,0.18653 2.03112,0.60105 2.03112,2.44564 0,1.98966 -0.41452,2.56998 -1.76169,2.56998 -1.40934,0 -2.09329,-0.95338 -2.09329,-2.15547 z"
     style="font-size:20.7257px;line-height:125%;font-family:Prociono;-inkscape-font-specification:Prociono;text-align:center;letter-spacing:0.264583px;word-spacing:0px;text-anchor:middle;white-space:pre;fill:#ff6600;stroke-width:0.470775px"
     id="path52986" />
  <path
     i:knockout="Off"
     fill="#a80030"
     d="m 134.71958,130.98751 -2.32473,2.32351 -2.32352,-2.32351 2.32352,-2.32352 2.32473,2.32352"
     id="path1222-7"
     style="stroke-width:0.605714;fill:#f57900;fill-opacity:1" />
  <path
     d="m 141.06146,135.70361 0.29016,0.60105 h 8.84987 c 0,-0.47669 0.0414,-1.13992 0.0829,-1.49225 l -0.2487,-0.22799 c -0.80831,0.0829 -2.59072,0.18654 -4.16587,0.18654 -0.60105,0 -1.30572,-0.0207 -2.07257,-0.0415 0.20726,-0.1658 0.49742,-0.37306 0.82903,-0.60104 l 1.07773,-0.7254 c 1.76169,-1.22282 3.91716,-2.94305 3.91716,-4.91199 0,-2.42491 -2.19692,-3.10886 -3.85498,-3.10886 -0.43524,0 -0.8083,0.0414 -1.11919,0.12436 l -2.52853,1.6995 0.29016,0.60105 c 1.74096,-0.8083 2.11402,-0.84975 2.83942,-0.84975 1.92749,0 2.27983,1.07773 2.27983,2.07257 0,1.40934 -1.4508,2.71506 -3.37829,4.22804 l -2.36273,1.84459 z"
     style="font-size:20.7257px;line-height:125%;font-family:Prociono;-inkscape-font-specification:Prociono;text-align:center;letter-spacing:0.264583px;word-spacing:0px;text-anchor:middle;white-space:pre;fill:#ff6600;stroke-width:0.470775px"
     id="path52990" />
  <path
     d="m 151.68888,131.08178 c 0,3.23321 1.49225,5.59594 4.1866,5.59594 2.46635,0 3.89643,-2.61144 4.10368,-3.19176 0.18654,-0.51814 0.41452,-1.69951 0.41452,-2.32128 0,-2.73579 -1.24354,-5.74102 -4.37312,-5.74102 -0.53887,0 -1.76169,0.43524 -2.71507,1.26427 -0.91193,0.8083 -1.61661,2.23838 -1.61661,4.39385 z m 1.38863,-0.0414 c 0,-3.77208 1.67878,-3.83426 2.79797,-3.83426 1.4508,0 3.0674,1.4508 3.0674,3.95861 0,2.7358 -0.62177,3.7099 -2.75652,3.7099 -1.34717,0 -3.10885,-1.36789 -3.10885,-3.83425 z"
     style="font-size:20.7257px;line-height:125%;font-family:Prociono;-inkscape-font-specification:Prociono;text-align:center;letter-spacing:0.264583px;word-spacing:0px;text-anchor:middle;white-space:pre;fill:#ff6600;stroke-width:0.470775px"
     id="path52992" />
  <path
     d="m 161.48728,135.70361 0.29016,0.60105 h 8.84987 c 0,-0.47669 0.0414,-1.13992 0.0829,-1.49225 l -0.24871,-0.22799 c -0.8083,0.0829 -2.59071,0.18654 -4.16586,0.18654 -0.60105,0 -1.30572,-0.0207 -2.07257,-0.0415 0.20726,-0.1658 0.49742,-0.37306 0.82903,-0.60104 l 1.07773,-0.7254 c 1.76169,-1.22282 3.91716,-2.94305 3.91716,-4.91199 0,-2.42491 -2.19692,-3.10886 -3.85498,-3.10886 -0.43524,0 -0.8083,0.0414 -1.11919,0.12436 l -2.52853,1.6995 0.29016,0.60105 c 1.74096,-0.8083 2.11402,-0.84975 2.83942,-0.84975 1.92749,0 2.27982,1.07773 2.27982,2.07257 0,1.40934 -1.45079,2.71506 -3.37828,4.22804 l -2.36273,1.84459 z"
     style="font-size:20.7257px;line-height:125%;font-family:Prociono;-inkscape-font-specification:Prociono;text-align:center;letter-spacing:0.264583px;word-spacing:0px;text-anchor:middle;white-space:pre;fill:#ff6600;stroke-width:0.470775px"
     id="path52994" />
  <path
     d="m 171.70019,135.70361 0.29016,0.60105 h 8.84987 c 0,-0.47669 0.0415,-1.13992 0.0829,-1.49225 l -0.24871,-0.22799 c -0.8083,0.0829 -2.59071,0.18654 -4.16587,0.18654 -0.60104,0 -1.30572,-0.0207 -2.07257,-0.0415 0.20726,-0.1658 0.49742,-0.37306 0.82903,-0.60104 l 1.07774,-0.7254 c 1.76168,-1.22282 3.91715,-2.94305 3.91715,-4.91199 0,-2.42491 -2.19692,-3.10886 -3.85498,-3.10886 -0.43524,0 -0.8083,0.0414 -1.11918,0.12436 l -2.52854,1.6995 0.29016,0.60105 c 1.74096,-0.8083 2.11402,-0.84975 2.83942,-0.84975 1.92749,0 2.27983,1.07773 2.27983,2.07257 0,1.40934 -1.4508,2.71506 -3.37829,4.22804 l -2.36273,1.84459 z"
     style="font-size:20.7257px;line-height:125%;font-family:Prociono;-inkscape-font-specification:Prociono;text-align:center;letter-spacing:0.264583px;word-spacing:0px;text-anchor:middle;white-space:pre;fill:#ff6600;stroke-width:0.470775px"
     id="path52996" />
  <path
     i:knockout="Off"
     fill="#a80030"
     d="m 78.396564,5.6884346 -1.66426,1.6633953 -1.6634,-1.6633953 1.6634,-1.6633954 1.66426,1.6633954"
     id="path1222"
     style="stroke-width:0.433628;fill:#f57900;fill-opacity:1" />
  <path
     i:knockout="Off"
     fill="#a80030"
     d="m 157.52161,5.6812865 -1.66427,1.6633954 -1.66341,-1.6633954 1.66341,-1.6633954 1.66427,1.6633954"
     id="path1222-6"
     style="stroke-width:0.433628;fill:#f57900;fill-opacity:1" />
  <path
     d="m 37.97175,19.670246 c 0.559593,-0.04145 1.78241,-0.0829 2.880872,-0.0829 1.430073,0 3.212483,0.207257 4.331671,0.207257 h 0.43524 c 2.922324,0 6.984561,-2.114021 6.984561,-8.601165 0,-4.8290885 -1.989667,-6.94311 -6.487144,-6.94311 h -0.43524 c -1.388622,0 -1.430073,0.207257 -4.829088,0.207257 -1.098462,0 -2.321279,-0.041451 -2.880872,-0.082903 v 0.766851 l 0.290159,0.020726 c 0.974108,0.062177 1.409348,0.1450799 1.430074,0.8083023 0.124354,4.1244147 0.14508,11.8136487 0.14508,11.9794547 0,0.787577 -0.829028,0.891205 -1.865313,0.953382 z m 3.875706,-2.901598 c 0,-1.098462 0.0829,-8.8291483 0.165805,-11.0260725 l 0.227983,-0.2279827 c 0.43524,-0.1450799 1.34717,-0.2279827 2.673615,-0.2279827 3.834255,0 5.554488,2.0518443 5.554488,6.5700469 0,1.968942 -0.352337,3.399015 -0.829028,4.248769 -0.829028,1.49225 -1.492251,2.404181 -3.689175,2.404181 -3.295386,0 -4.103688,-0.352337 -4.103688,-1.740959 z"
     style="font-size:20.7257px;line-height:125%;font-family:Prociono;-inkscape-font-specification:Prociono;text-align:center;letter-spacing:0px;word-spacing:0px;text-anchor:middle;white-space:pre;fill:#ff6600;stroke-width:0.431906px"
     id="path52929" />
  <path
     d="m 54.075599,14.571724 c 0,2.466358 0.787577,5.409408 4.269495,5.409408 1.803136,0 2.963775,-1.367897 4.165865,-2.590713 l -0.455965,-0.476691 c -1.015559,0.994834 -2.031119,1.471525 -3.295386,1.471525 -2.673616,0 -2.694341,-2.07257 -2.694341,-4.124415 h 4.248768 c 0.87048,0 1.637331,-0.0829 2.176199,-0.414514 -0.02073,-1.430073 0.227982,-5.0156192 -4.00006,-5.0156192 -1.595879,0 -3.564821,1.6787822 -3.958609,2.5699872 -0.165806,0.393788 -0.455966,1.699507 -0.455966,3.171032 z m 2.031119,-1.243542 c 0,-2.176199 0.310886,-3.150307 2.300553,-3.150307 1.865313,0 2.155473,1.823862 2.155473,2.777244 -0.497417,0.352337 -1.575154,0.373063 -3.274661,0.373063 z"
     style="font-size:20.7257px;line-height:125%;font-family:Prociono;-inkscape-font-specification:Prociono;text-align:center;letter-spacing:0px;word-spacing:0px;text-anchor:middle;white-space:pre;fill:#ff6600;stroke-width:0.431906px"
     id="path52931" />
  <path
     d="m 63.339968,3.6492797 0.04145,0.6839481 c 1.512977,0 1.347171,0 1.450799,1.8653131 0.103629,1.865313 0.04145,5.6166651 0.0829,12.4975971 0.58032,0.808303 2.528536,1.284994 3.461192,1.284994 0.7254,0 1.450799,-0.06218 2.010393,-0.310886 1.119188,-0.497417 2.279827,-1.78241 2.404181,-1.948216 0.683948,-1.036285 0.891205,-2.342004 0.891205,-4.14514 0,-2.756518 -0.538868,-4.829088 -3.772077,-4.829088 -0.414514,0 -0.953382,0.1243542 -3.191758,1.347171 l 0.0829,-5.7410195 V 3.4627484 c 0,-0.2279827 -0.186531,-0.3108855 -0.352337,-0.3108855 -0.227983,0 -1.077736,0.3108855 -3.108855,0.4974168 z m 3.336838,11.6063923 c 0,-0.704674 0,-1.658056 0.02072,-2.901598 v -1.367896 c 1.492251,-0.787577 1.844588,-0.808303 2.300553,-0.808303 1.119188,0 2.839421,0.559594 2.839421,3.564821 0,0.14508 -0.0829,2.528535 -0.352337,3.399015 -0.393788,1.284993 -1.015559,1.409347 -1.968941,1.409347 -1.077737,0 -2.321279,-0.518142 -2.632164,-0.911931 -0.165806,-0.165805 -0.207257,-0.580319 -0.207257,-2.383455 z"
     style="font-size:20.7257px;line-height:125%;font-family:Prociono;-inkscape-font-specification:Prociono;text-align:center;letter-spacing:0px;word-spacing:0px;text-anchor:middle;white-space:pre;fill:#ff6600;stroke-width:0.431906px"
     id="path52933" />
  <path
     id="path52935"
     style="font-size:20.7257px;line-height:125%;font-family:Prociono;-inkscape-font-specification:Prociono;text-align:center;letter-spacing:0px;word-spacing:0px;text-anchor:middle;white-space:pre;fill:#ff6600;stroke-width:1.6324px"
     d="M 294.85547 33.140625 C 293.9938 33.140625 290.78214 34.316484 283.10547 35.021484 L 283.26172 37.605469 L 284.4375 37.605469 C 288.4325 37.605469 288.90234 38.154658 288.90234 51.236328 L 288.90234 67.529297 C 288.90234 70.5843 288.35443 71.289976 282.87109 71.681641 L 282.87109 74.34375 L 301.04297 74.34375 L 301.04297 71.681641 C 297.5963 71.44663 295.79492 70.662082 295.79492 68.46875 C 295.79492 47.162075 296.1875 37.762865 296.1875 34.394531 C 296.1875 33.454531 295.48214 33.140625 294.85547 33.140625 z "
     transform="scale(0.26458333)" />
  <path
     d="m 88.58386,17.017356 c 0,-1.05701 0.0829,-2.735792 0.0829,-5.471584 0,-1.01556 -0.04145,-2.7772443 -3.233209,-2.7772443 -4.331672,0 -3.917158,3.1088553 -4.000061,3.8135293 l 0.849754,0.0829 c 0.538868,-1.948215 0.746125,-2.569986 2.21765,-2.569986 0.974108,0 2.259101,0.373062 2.259101,1.78241 0,0.248708 -0.02072,0.746125 -0.02072,1.243542 -3.150307,0.704674 -5.844648,0.538868 -5.844648,4.041511 0,1.30572 0.455966,2.715067 2.031119,2.715067 1.92749,0 2.155473,-0.43524 3.937883,-1.595879 0.124354,0.248709 0.414514,1.492251 0.870479,1.492251 0.14508,0 1.595879,-0.476691 1.595879,-0.476691 0.14508,-0.04145 0.186531,-0.0829 0.186531,-0.165806 0,-0.373063 -0.932656,-1.222816 -0.932656,-2.114022 z m -5.823922,-0.06218 c 0,-1.948215 0.497417,-1.865313 3.979335,-3.025952 0.02072,0.621771 0.02072,1.222816 0.02072,1.761685 0,0.808302 0,1.63733 -0.14508,1.761684 -0.746125,0.621771 -1.699507,1.036285 -2.466358,1.036285 -0.787577,0 -1.388622,-0.43524 -1.388622,-1.533702 z"
     style="font-size:20.7257px;line-height:125%;font-family:Prociono;-inkscape-font-specification:Prociono;text-align:center;letter-spacing:0px;word-spacing:0px;text-anchor:middle;white-space:pre;fill:#ff6600;stroke-width:0.431906px"
     id="path52937" />
  <path
     d="m 90.635676,9.4524758 0.06218,0.7875762 c 0.663223,0.06218 0.994834,0.02073 1.160639,0.683949 0.04145,0.145079 0.14508,5.533762 0.14508,5.63739 0,2.155473 -0.06218,2.21765 -1.284993,2.404181 v 0.704674 h 4.352397 v -0.704674 c -0.994834,-0.06218 -1.222816,-0.0829 -1.222816,-1.865313 0,-1.139913 0.0829,-3.005226 0.14508,-6.031179 0.580319,-0.393788 1.803135,-0.76685 2.300552,-0.76685 0.787577,0 1.823862,0.0829 1.823862,1.181364 v 6.570047 c 0,0.58032 -0.06218,0.829029 -1.181365,0.911931 v 0.704674 h 4.228038 v -0.704674 c -0.99483,-0.06218 -1.09846,-0.269434 -1.09846,-0.829028 V 11.21416 c 0,-1.015559 -0.455963,-2.4249066 -2.238373,-2.4249066 -0.911931,0 -2.176198,0.3730626 -3.896432,1.3471706 V 9.8462641 c 0,-0.8497537 -0.124354,-1.0984621 -0.497416,-1.0984621 -0.559594,0 -1.284994,0.5388682 -2.79797,0.7046738 z"
     style="font-size:20.7257px;line-height:125%;font-family:Prociono;-inkscape-font-specification:Prociono;text-align:center;letter-spacing:0px;word-spacing:0px;text-anchor:middle;white-space:pre;fill:#ff6600;stroke-width:0.431906px"
     id="path52939" />
  <path
     d="m 107.2784,19.670246 h 5.74102 v -0.766851 c -1.07773,-0.0829 -1.86531,-0.186531 -1.86531,-0.953382 0,-0.103629 0.0207,-3.025952 0.0622,-5.948276 0.53886,0.186531 1.36789,0.269434 2.05184,0.269434 h 0.58032 l 3.627,7.481978 c 1.13991,-0.0829 1.86531,-0.0829 3.00522,-0.0829 v -0.746125 l -1.13991,-0.497417 c -1.51298,-2.404181 -3.68917,-6.673675 -3.68917,-6.673675 1.59587,-1.057011 2.52853,-1.8653135 2.52853,-3.8135293 0,-2.3212784 -1.67878,-3.6891747 -3.44046,-3.6891747 h -0.41452 c -0.84975,0 -1.26427,0.207257 -4.16586,0.207257 -1.16064,0 -2.30056,-0.041451 -2.88088,-0.082903 v 0.766851 l 0.29016,0.020726 c 0.97411,0.062177 1.40935,0.1450799 1.43008,0.8083023 0.12435,4.1244147 0.14508,11.8136487 0.14508,11.9794547 0,0.787577 -0.82903,0.891205 -1.86532,0.953382 z m 3.95861,-8.787697 c 0.0207,-2.0518442 0.0414,-4.207317 0.0829,-5.1606992 l 0.20726,-0.2279827 c 0.47669,-0.207257 1.90677,-0.2694341 2.52854,-0.2694341 0.26943,0 1.96894,0.5803196 1.96894,3.0052265 0,1.1813649 -0.51814,3.0052265 -2.61144,3.0052265 -0.95338,0 -1.80314,-0.124354 -2.1762,-0.352337 z"
     style="font-size:20.7257px;line-height:125%;font-family:Prociono;-inkscape-font-specification:Prociono;text-align:center;letter-spacing:0px;word-spacing:0px;text-anchor:middle;white-space:pre;fill:#ff6600;stroke-width:0.431906px"
     id="path52941" />
  <path
     d="m 121.10242,14.571724 c 0,2.466358 0.78758,5.409408 4.2695,5.409408 1.80313,0 2.96377,-1.367897 4.16586,-2.590713 l -0.45596,-0.476691 c -1.01556,0.994834 -2.03112,1.471525 -3.29539,1.471525 -2.67361,0 -2.69434,-2.07257 -2.69434,-4.124415 h 4.24877 c 0.87048,0 1.63733,-0.0829 2.1762,-0.414514 -0.0207,-1.430073 0.22798,-5.0156192 -4.00006,-5.0156192 -1.59588,0 -3.56482,1.6787822 -3.95861,2.5699872 -0.16581,0.393788 -0.45597,1.699507 -0.45597,3.171032 z m 2.03112,-1.243542 c 0,-2.176199 0.31089,-3.150307 2.30055,-3.150307 1.86532,0 2.15548,1.823862 2.15548,2.777244 -0.49742,0.352337 -1.57516,0.373063 -3.27466,0.373063 z"
     style="font-size:20.7257px;line-height:125%;font-family:Prociono;-inkscape-font-specification:Prociono;text-align:center;letter-spacing:0px;word-spacing:0px;text-anchor:middle;white-space:pre;fill:#ff6600;stroke-width:0.431906px"
     id="path52943" />
  <path
     d="m 140.12859,17.038082 c 0,-1.512976 0.16581,-3.440466 0.16581,-7.9379431 0,-0.2487084 -0.20726,-0.3108855 -0.37306,-0.3108855 -0.22799,0 -1.05702,0.2901598 -3.10886,0.4974168 l 0.0414,0.6839481 h 0.66322 c 0.66323,0 0.78758,0 0.78758,1.7202327 0,0.974108 -0.0414,2.50781 -0.0414,4.911991 0,0.642497 -0.0414,0.746126 -0.84975,1.16064 -0.39379,0.207257 -1.53371,0.455965 -2.11403,0.455965 -0.39378,0 -1.03628,-0.352337 -1.24354,-0.953382 -0.1658,-0.455966 -0.20726,-1.181365 -0.20726,-2.114022 0,-1.284993 0.0829,-3.792803 0.0829,-6.0519041 0,-0.2487084 -0.20726,-0.3108855 -0.37306,-0.3108855 -0.22799,0 -1.11919,0.3523369 -2.94305,0.5595939 l 0.0414,0.7046737 c 1.24354,0.02073 1.34717,-0.062177 1.34717,3.171032 v 1.968942 c 0,0.870479 0.10363,2.238375 0.20725,2.569987 0.31089,1.222816 1.38863,2.093295 2.36273,2.093295 0.39379,0 1.92749,-0.207257 3.83426,-1.554427 0.12435,0.248708 0.41451,1.49225 0.87048,1.49225 0.14508,0 1.59588,-0.476691 1.59588,-0.476691 0.14508,-0.04145 0.18653,-0.0829 0.18653,-0.165805 0,-0.373063 -0.93266,-1.222817 -0.93266,-2.114022 z"
     style="font-size:20.7257px;line-height:125%;font-family:Prociono;-inkscape-font-specification:Prociono;text-align:center;letter-spacing:0px;word-spacing:0px;text-anchor:middle;white-space:pre;fill:#ff6600;stroke-width:0.431906px"
     id="path52945" />
  <path
     d="m 142.34624,9.4524758 0.0622,0.7875762 c 0.66323,0.06218 0.99484,0.02073 1.16064,0.683949 0.0414,0.145079 0.14508,5.533762 0.14508,5.63739 0,2.155473 -0.0622,2.21765 -1.28499,2.404181 v 0.704674 h 4.3524 v -0.704674 c -0.99484,-0.06218 -1.22282,-0.0829 -1.22282,-1.865313 0,-1.139913 0.0829,-3.005226 0.14508,-6.031179 0.58032,-0.393788 1.80314,-0.76685 2.30055,-0.76685 0.78758,0 1.82386,0.0829 1.82386,1.181364 v 6.570047 c 0,0.58032 -0.0622,0.829029 -1.18136,0.911931 v 0.704674 h 4.22804 v -0.704674 c -0.99483,-0.06218 -1.09846,-0.269434 -1.09846,-0.829028 V 11.21416 c 0,-1.015559 -0.45597,-2.4249066 -2.23838,-2.4249066 -0.91193,0 -2.17619,0.3730626 -3.89643,1.3471706 V 9.8462641 c 0,-0.8497537 -0.12435,-1.0984621 -0.49741,-1.0984621 -0.5596,0 -1.285,0.5388682 -2.79797,0.7046738 z"
     style="font-size:20.7257px;line-height:125%;font-family:Prociono;-inkscape-font-specification:Prociono;text-align:center;letter-spacing:0px;word-spacing:0px;text-anchor:middle;white-space:pre;fill:#ff6600;stroke-width:0.431906px"
     id="path52947" />
  <path
     id="path52949"
     style="font-size:20.7257px;line-height:125%;font-family:Prociono;-inkscape-font-specification:Prociono;text-align:center;letter-spacing:0px;word-spacing:0px;text-anchor:middle;white-space:pre;fill:#ff6600;stroke-width:1.6324px"
     d="M 593.93164 33.140625 C 593.06998 33.140625 589.85828 34.316484 582.18164 35.021484 L 582.33789 37.605469 L 583.51367 37.605469 C 587.50867 37.605469 587.97852 38.154658 587.97852 51.236328 L 587.97852 67.529297 C 587.97852 70.5843 587.4306 71.289976 581.94727 71.681641 L 581.94727 74.34375 L 600.11914 74.34375 L 600.11914 71.681641 C 596.67248 71.44663 594.87109 70.662082 594.87109 68.46875 C 594.87109 47.162075 595.26367 37.762865 595.26367 34.394531 C 595.26367 33.454531 594.55832 33.140625 593.93164 33.140625 z "
     transform="scale(0.26458333)" />
  <path
     d="m 159.81799,14.281564 c 0,4.953442 2.61144,5.741019 4.37312,5.741019 0.7254,0 1.32645,-0.103628 1.88604,-0.352337 1.11919,-0.497417 2.2591,-1.989667 2.38346,-2.155473 0.68395,-1.036285 0.91193,-2.134747 0.91193,-3.937883 0,-3.523369 -2.27983,-4.8083623 -4.45603,-4.8083623 -1.16064,0 -3.48191,1.0984621 -4.24877,2.3005523 -0.33161,0.538869 -0.84975,1.761685 -0.84975,3.212484 z m 1.96894,-0.165806 c 0,-3.875706 1.24354,-3.875706 2.50781,-3.875706 0.41452,0 0.78758,0.06218 1.11919,0.14508 1.51298,0.476691 2.07257,1.388622 2.07257,3.751352 0,3.150307 -0.78758,4.062237 -1.43007,4.310946 -0.22799,0.0829 -0.58032,0.103628 -0.91193,0.103628 -2.0104,0 -3.35757,-0.911931 -3.35757,-4.4353 z"
     style="font-size:20.7257px;line-height:125%;font-family:Prociono;-inkscape-font-specification:Prociono;text-align:center;letter-spacing:0px;word-spacing:0px;text-anchor:middle;white-space:pre;fill:#ff6600;stroke-width:0.431906px"
     id="path52951" />
  <path
     d="m 170.57459,9.4524758 0.0622,0.7875762 c 0.66322,0.06218 0.99483,0.02073 1.16064,0.683949 0.0414,0.145079 0.14508,5.533762 0.14508,5.63739 0,2.155473 -0.0622,2.21765 -1.285,2.404181 v 0.704674 h 4.3524 v -0.704674 c -0.99483,-0.06218 -1.22282,-0.0829 -1.22282,-1.865313 0,-1.139913 0.0829,-3.005226 0.14508,-6.031179 0.58032,-0.393788 1.80314,-0.76685 2.30056,-0.76685 0.78757,0 1.82386,0.0829 1.82386,1.181364 v 6.570047 c 0,0.58032 -0.0622,0.829029 -1.18137,0.911931 v 0.704674 h 4.22805 v -0.704674 c -0.99484,-0.06218 -1.09847,-0.269434 -1.09847,-0.829028 V 11.21416 c 0,-1.015559 -0.45596,-2.4249066 -2.23837,-2.4249066 -0.91193,0 -2.1762,0.3730626 -3.89643,1.3471706 V 9.8462641 c 0,-0.8497537 -0.12436,-1.0984621 -0.49742,-1.0984621 -0.55959,0 -1.28499,0.5388682 -2.79797,0.7046738 z"
     style="font-size:20.7257px;line-height:125%;font-family:Prociono;-inkscape-font-specification:Prociono;text-align:center;letter-spacing:0px;word-spacing:0px;text-anchor:middle;white-space:pre;fill:#ff6600;stroke-width:0.431906px"
     id="path52953" />
  <path
     id="rect846"
     style="fill:#f57900;fill-opacity:1;fill-rule:evenodd;stroke:none;stroke-width:0.0477627"
     d="m 156.60064,33.602796 a 1.670033,1.7578889 62.827433 0 0 -0.80124,2.288503 1.670033,1.7578889 62.827433 0 0 0.0527,0.09338 l -9.3e-4,5.93e-4 1.62689,3.169338 3.07569,-1.578823 a 1.670033,1.7578889 62.827433 0 0 0.13636,-0.0626 1.670033,1.7578889 62.827433 0 0 0.80124,-2.288521 1.670033,1.7578889 62.827433 0 0 -2.32657,-0.682936 1.670033,1.7578889 62.827433 0 0 -0.11529,0.06457 l -2e-4,-4.87e-4 a 1.670033,1.7578889 62.827433 0 0 -0.12195,-0.320142 1.670033,1.7578889 62.827433 0 0 -2.32654,-0.682956 z" />
  <path
     id="rect846-6"
     style="fill:#a80030;fill-opacity:1;fill-rule:evenodd;stroke:none;stroke-width:0.0720067"
     d="m 162.801,26.772653 a 2.5177233,2.6501739 39.985566 0 0 0.2261,3.64845 2.5177233,2.6501739 39.985566 0 0 0.12786,0.0989 l -8.3e-4,0.0015 4.11514,3.451255 3.34929,-3.993547 a 2.5177233,2.6501739 39.985566 0 0 0.15302,-0.166742 2.5177233,2.6501739 39.985566 0 0 -0.2261,-3.648476 2.5177233,2.6501739 39.985566 0 0 -3.63211,0.412718 2.5177233,2.6501739 39.985566 0 0 -0.12232,0.157175 l -6.1e-4,-5.48e-4 a 2.5177233,2.6501739 39.985566 0 0 -0.35657,-0.373502 2.5177233,2.6501739 39.985566 0 0 -3.63205,0.412664 z" />
  <path
     style="fill:#000000;fill-rule:nonzero;stroke:none;stroke-width:0.309303px;stroke-linecap:butt;stroke-linejoin:miter;stroke-opacity:1"
     d="m 163.24744,43.473291 c 0.31755,0.160473 0.70515,0.319334 1.13905,0.406879 0.33098,0.06678 0.67064,0.08862 1.02322,0.0541 0.31403,-0.03075 0.62402,-0.104702 0.93794,-0.21834 0.29894,-0.108215 0.59091,-0.248526 0.88323,-0.410445 0.59573,-0.329977 1.1759,-0.737131 1.72459,-1.07586 0.78663,-0.485614 1.34383,-0.732109 1.87254,-0.880243 -0.52871,0.148134 -1.08591,0.394629 -1.87254,0.880243 -0.54869,0.338729 -1.12886,0.745883 -1.72459,1.07586 -0.29232,0.161919 -0.58429,0.30223 -0.88323,0.410445 -0.31392,0.113638 -0.62391,0.187593 -0.93794,0.21834 -0.35258,0.03452 -0.69224,0.01268 -1.02322,-0.0541 -0.4339,-0.08754 -0.8215,-0.246406 -1.13905,-0.406879 z"
     id="path44308" />
</svg>
