<?xml version="1.0" encoding="UTF-8" standalone="no"?>
<!-- Created with Inkscape (http://www.inkscape.org/) -->

<svg
   width="137.62601mm"
   height="74.964996mm"
   viewBox="0 0 137.62601 74.964996"
   version="1.1"
   id="svg59233"
   inkscape:version="1.2 (dc2aedaf03, 2022-05-15)"
   sodipodi:docname="pipeline-attest-independent.svg"
   xmlns:inkscape="http://www.inkscape.org/namespaces/inkscape"
   xmlns:sodipodi="http://sodipodi.sourceforge.net/DTD/sodipodi-0.dtd"
   xmlns="http://www.w3.org/2000/svg"
   xmlns:svg="http://www.w3.org/2000/svg">
  <sodipodi:namedview
     id="namedview59235"
     pagecolor="#ffffff"
     bordercolor="#666666"
     borderopacity="1.0"
     inkscape:showpageshadow="2"
     inkscape:pageopacity="0.0"
     inkscape:pagecheckerboard="0"
     inkscape:deskcolor="#d1d1d1"
     inkscape:document-units="mm"
     showgrid="false"
     inkscape:zoom="1.8761364"
     inkscape:cx="21.320411"
     inkscape:cy="274.7668"
     inkscape:window-width="2439"
     inkscape:window-height="2076"
     inkscape:window-x="1400"
     inkscape:window-y="46"
     inkscape:window-maximized="0"
     inkscape:current-layer="layer1" />
  <defs
     id="defs59230">
    <marker
       style="overflow:visible"
       id="Arrow3-6"
       refX="0"
       refY="0"
       orient="auto-start-reverse"
       inkscape:stockid="Arrow3"
       markerWidth="4.2071066"
       markerHeight="7"
       viewBox="0 0 4.2071068 7"
       inkscape:isstock="true"
       inkscape:collect="always"
       preserveAspectRatio="xMidYMid">
      <path
         style="fill:none;stroke:context-stroke;stroke-width:1;stroke-linecap:round"
         d="M 3,-3 0,0 3,3"
         id="arrow3-9"
         transform="rotate(180,0.125,0)"
         sodipodi:nodetypes="ccc" />
    </marker>
    <marker
       style="overflow:visible"
       id="Arrow3-6-3"
       refX="0"
       refY="0"
       orient="auto-start-reverse"
       inkscape:stockid="Arrow3"
       markerWidth="4.2071066"
       markerHeight="7"
       viewBox="0 0 4.2071068 7"
       inkscape:isstock="true"
       inkscape:collect="always"
       preserveAspectRatio="xMidYMid">
      <path
         style="fill:none;stroke:context-stroke;stroke-width:1;stroke-linecap:round"
         d="M 3,-3 0,0 3,3"
         id="arrow3-9-7"
         transform="rotate(180,0.125,0)"
         sodipodi:nodetypes="ccc" />
    </marker>
    <marker
       style="overflow:visible"
       id="Arrow3-6-3-3"
       refX="0"
       refY="0"
       orient="auto-start-reverse"
       inkscape:stockid="Arrow3"
       markerWidth="4.2071066"
       markerHeight="7"
       viewBox="0 0 4.2071068 7"
       inkscape:isstock="true"
       inkscape:collect="always"
       preserveAspectRatio="xMidYMid">
      <path
         style="fill:none;stroke:context-stroke;stroke-width:1;stroke-linecap:round"
         d="M 3,-3 0,0 3,3"
         id="arrow3-9-7-9"
         transform="rotate(180,0.125,0)"
         sodipodi:nodetypes="ccc" />
    </marker>
    <marker
       style="overflow:visible"
       id="Arrow3-6-4"
       refX="0"
       refY="0"
       orient="auto-start-reverse"
       inkscape:stockid="Arrow3"
       markerWidth="4.2071066"
       markerHeight="7"
       viewBox="0 0 4.2071068 7"
       inkscape:isstock="true"
       inkscape:collect="always"
       preserveAspectRatio="xMidYMid">
      <path
         style="fill:none;stroke:context-stroke;stroke-width:1;stroke-linecap:round"
         d="M 3,-3 0,0 3,3"
         id="arrow3-9-2"
         transform="rotate(180,0.125,0)"
         sodipodi:nodetypes="ccc" />
    </marker>
  </defs>
  <g
     inkscape:label="Layer 1"
     inkscape:groupmode="layer"
     id="layer1">
    <rect
       style="fill:#fa448c;fill-opacity:0.286275;stroke:#fa448c;stroke-width:0.958462;stroke-linecap:round;stroke-linejoin:round;stroke-dasharray:none;stroke-opacity:0.635294"
       id="rect53641-8-5"
       width="29.713373"
       height="15.729723"
       x="54.401325"
       y="21.010096" />
    <text
       xml:space="preserve"
       style="font-style:normal;font-variant:normal;font-weight:normal;font-stretch:normal;font-size:11.2889px;line-height:1.25;font-family:Roboto;-inkscape-font-specification:'Roboto, Normal';font-variant-ligatures:normal;font-variant-caps:normal;font-variant-numeric:normal;font-variant-east-asian:normal;letter-spacing:0px;word-spacing:0px;writing-mode:lr-tb;stroke-width:0.264583"
       x="9.9120665"
       y="50.053493"
       id="text59239"><tspan
         sodipodi:role="line"
         id="tspan59237"
         style="font-style:normal;font-variant:normal;font-weight:normal;font-stretch:normal;font-size:11.2889px;font-family:Roboto;-inkscape-font-specification:'Roboto, Normal';font-variant-ligatures:normal;font-variant-caps:normal;font-variant-numeric:normal;font-variant-east-asian:normal;stroke-width:0.264583"
         x="9.9120665"
         y="50.053493">Code</tspan></text>
    <rect
       style="fill:#fec859;fill-opacity:0.287633;stroke:#fec859;stroke-width:1;stroke-linecap:round;stroke-linejoin:round;stroke-dasharray:none;stroke-opacity:0.635294"
       id="rect53641-8"
       width="31.976091"
       height="33.646046"
       x="7.1173706"
       y="21.040203" />
    <text
       xml:space="preserve"
       style="font-size:11.2889px;line-height:1.25;font-family:Roboto;-inkscape-font-specification:'Roboto, Normal';letter-spacing:0px;word-spacing:0px;writing-mode:lr-tb;stroke-width:0.264583"
       x="12.422854"
       y="32.814339"
       id="text59853"><tspan
         sodipodi:role="line"
         style="stroke-width:0.264583"
         x="12.422854"
         y="32.814339"
         id="tspan60739">Libs</tspan></text>
    <text
       xml:space="preserve"
       style="font-size:11.2889px;line-height:1.25;font-family:Roboto;-inkscape-font-specification:'Roboto, Normal';letter-spacing:0px;word-spacing:0px;writing-mode:lr-tb;stroke-width:0.264583"
       x="56.400562"
       y="32.606213"
       id="text59857"><tspan
         sodipodi:role="line"
         id="tspan59855"
         style="stroke-width:0.264583"
         x="56.400562"
         y="32.606213">Build</tspan></text>
    <rect
       style="fill:#fa448c;fill-opacity:0.286275;stroke:#fa448c;stroke-width:0.958462;stroke-linecap:round;stroke-linejoin:round;stroke-dasharray:none;stroke-opacity:0.635294"
       id="rect53641-8-5-3"
       width="29.713373"
       height="15.729723"
       x="54.401325"
       y="39.403809" />
    <text
       xml:space="preserve"
       style="font-size:11.2889px;line-height:1.25;font-family:Roboto;-inkscape-font-specification:'Roboto, Normal';letter-spacing:0px;word-spacing:0px;writing-mode:lr-tb;stroke-width:0.264583"
       x="56.361927"
       y="50.999928"
       id="text59857-7"><tspan
         sodipodi:role="line"
         id="tspan59855-1"
         style="stroke-width:0.264583"
         x="56.361927"
         y="50.999928">Build</tspan></text>
    <path
       style="fill:none;stroke:#000000;stroke-width:1;stroke-linecap:butt;stroke-linejoin:miter;stroke-dasharray:none;stroke-opacity:1;marker-end:url(#Arrow3-6)"
       d="m 84.449605,29.399319 13.746573,0.07433"
       id="path59957-3"
       sodipodi:nodetypes="cc" />
    <path
       style="fill:none;stroke:#000000;stroke-width:1;stroke-linecap:butt;stroke-linejoin:miter;stroke-dasharray:none;stroke-opacity:1;marker-end:url(#Arrow3-6-3)"
       d="m 39.458876,37.924175 14.777857,-9.06598"
       id="path59957-3-4"
       sodipodi:nodetypes="cc" />
    <path
       style="fill:none;stroke:#000000;stroke-width:1;stroke-linecap:butt;stroke-linejoin:miter;stroke-dasharray:none;stroke-opacity:1;marker-end:url(#Arrow3-6-3-3)"
       d="m 39.106202,38.050745 14.777857,9.06598"
       id="path59957-3-4-6"
       sodipodi:nodetypes="cc" />
    <g
       id="g60432"
       transform="translate(2.903386,-9.769655)">
      <rect
         style="fill:#491d88;fill-opacity:0.286275;stroke:#491d88;stroke-width:1;stroke-linecap:round;stroke-linejoin:round;stroke-dasharray:none;stroke-opacity:0.635294"
         id="rect53641-8-5-8"
         width="32.430271"
         height="15.688185"
         x="95.99469"
         y="30.955311" />
      <text
         xml:space="preserve"
         style="font-size:11.2889px;line-height:1.25;font-family:Roboto;-inkscape-font-specification:'Roboto, Normal';letter-spacing:0px;word-spacing:0px;writing-mode:lr-tb;stroke-width:0.264583"
         x="101.33913"
         y="42.671337"
         id="text60405"><tspan
           sodipodi:role="line"
           id="tspan60403"
           style="stroke-width:0.264583"
           x="101.33913"
           y="42.671337">Ship</tspan></text>
    </g>
    <path
       style="fill:none;stroke:#000000;stroke-width:1;stroke-linecap:butt;stroke-linejoin:miter;stroke-dasharray:none;stroke-opacity:1;marker-end:url(#Arrow3-6-4)"
       d="m 84.352045,47.608391 13.74657,0.07433"
       id="path59957-3-0"
       sodipodi:nodetypes="cc" />
    <g
       id="g60432-2"
       transform="translate(2.8058265,8.4394175)">
      <rect
         style="fill:#491d88;fill-opacity:0.286275;stroke:#491d88;stroke-width:1;stroke-linecap:round;stroke-linejoin:round;stroke-dasharray:none;stroke-opacity:0.635294"
         id="rect53641-8-5-8-9"
         width="32.430271"
         height="15.688185"
         x="95.99469"
         y="30.955311" />
      <text
         xml:space="preserve"
         style="font-size:11.2889px;line-height:1.25;font-family:Roboto;-inkscape-font-specification:'Roboto, Normal';letter-spacing:0px;word-spacing:0px;writing-mode:lr-tb;stroke-width:0.264583"
         x="97.385109"
         y="42.515472"
         id="text60405-5"><tspan
           sodipodi:role="line"
           id="tspan60403-7"
           style="stroke-width:0.264583"
           x="97.385109"
           y="42.515472">Attest</tspan></text>
    </g>
    <text
       xml:space="preserve"
       style="font-size:11.2889px;line-height:1.25;font-family:Roboto;-inkscape-font-specification:'Roboto, Normal';letter-spacing:0px;word-spacing:0px;writing-mode:lr-tb;stroke-width:0.264583"
       x="19.20252"
       y="41.739426"
       id="text60745"><tspan
         sodipodi:role="line"
         id="tspan60743"
         style="stroke-width:0.264583"
         x="19.20252"
         y="41.739426">+</tspan></text>
    <path
       d="m 69.299373,10.874461 c -0.219631,-6.9e-4 -0.43933,0.10934 -0.668179,0.27353 -0.228865,0.16412 -0.448627,0.40121 -0.650102,0.65654 -0.40295,0.51977 -0.714476,1.17637 -0.714783,1.71443 -3.6e-4,0.41039 0.08198,0.63839 0.292344,0.87551 -0.219705,0.11853 -0.4943,0.2553 -0.695696,0.39207 -0.192262,0.13678 -0.320479,0.31917 -0.512873,0.69306 -0.348123,0.66569 -0.494851,1.18552 -0.46763,1.58677 0.02725,0.41042 0.237474,0.70229 0.557852,0.89369 0.146373,0.0912 0.320056,0.15533 0.512361,0.20977 -0.356891,-10e-4 -0.722937,-0.002 -1.088956,6.9e-4 -0.04567,-6.9e-4 -0.09158,0.0547 -0.08244,0.10029 3.55e-4,0.0455 0.05506,0.091 0.100436,0.0823 l 1.0981,-6.9e-4 -5.2e-5,0.45599 c 1.79e-4,0.0457 0.04556,0.0912 0.09163,0.0911 l 4.383299,2.2e-4 c 0.04572,6.9e-4 0.09156,-0.0455 0.09153,-0.0911 l 6.8e-5,-0.45598 1.098132,-6.9e-4 c 0.04577,6.9e-4 0.09155,-0.0456 0.09151,-0.0912 -1.79e-4,-0.0457 -0.04556,-0.0912 -0.09162,-0.091 l -0.814425,-0.002 c 0.1739,-0.0548 0.320347,-0.11857 0.439383,-0.20967 0.256323,-0.19149 0.384614,-0.49246 0.375703,-0.89372 -0.0089,-0.40126 -0.145907,-0.91198 -0.401717,-1.56863 -0.136636,-0.37405 -0.274182,-0.56545 -0.466254,-0.70231 -0.256132,-0.15506 -0.521404,-0.28282 -0.713528,-0.39224 0.09156,-0.10032 0.16483,-0.20973 0.201485,-0.31916 0.05503,-0.15504 0.06427,-0.31919 0.06443,-0.5563 3.59e-4,-0.53808 -0.310436,-1.1856 -0.71273,-1.71461 -0.201157,-0.26448 -0.420629,-0.49253 -0.649314,-0.65669 -0.228668,-0.1824 -0.457411,-0.28273 -0.667872,-0.28275 z m -0.03784,2.09753 c 0.613119,0.002 1.26274,0.13698 1.857423,0.34676 0.01005,0.0637 0.01921,0.13667 0.01741,0.20069 -3.6e-4,0.22799 -0.0094,0.37391 -0.05521,0.49245 -0.03673,0.10945 -0.100791,0.20066 -0.201507,0.30094 -0.439484,0.42858 -0.997876,0.7477 -1.629283,0.74765 -0.640572,-0.002 -1.216835,-0.43788 -1.582626,-0.79362 -0.191839,-0.20999 -0.237691,-0.36485 -0.237469,-0.75698 3.6e-4,-0.073 0.0093,-0.1459 0.01842,-0.21886 0.640699,-0.20968 1.12576,-0.31907 1.812073,-0.31903 z m 1.8e-4,0.17324 c -0.603969,-0.002 -1.198821,0.082 -1.372801,0.25519 -1.8e-4,0.34655 -5.29e-4,0.56543 0.338016,1.02144 0.228706,0.22798 0.567118,0.45603 1.02462,0.45612 0.457581,0.002 0.796285,-0.22795 1.025197,-0.4559 0.338836,-0.45594 0.338974,-0.68393 0.33919,-1.02137 -0.155474,-0.17331 -0.750247,-0.2554 -1.354185,-0.25554 z m -2.097061,2.56243 4.200266,6.9e-4 -0.0016,2.46229 -4.200265,-2.1e-4 z m -0.0016,2.64471 4.200276,2.2e-4 -1.8e-4,0.36479 -4.200271,-2.2e-4 z"
       id="path10445-0"
       inkscape:connector-curvature="0"
       style="font-family:none;mix-blend-mode:normal;fill:#fec859;fill-opacity:1;fill-rule:nonzero;stroke:none;stroke-width:0.00233043;stroke-linecap:butt;stroke-linejoin:miter;stroke-miterlimit:10;stroke-dasharray:none;stroke-dashoffset:0" />
    <path
       d="m 69.299373,57.046752 c -0.219631,-6.88e-4 -0.43933,0.10934 -0.668179,0.273527 -0.228865,0.164123 -0.448627,0.401219 -0.650102,0.656549 -0.40295,0.519769 -0.714476,1.176364 -0.714783,1.714421 -3.6e-4,0.410392 0.08198,0.638389 0.292344,0.875516 -0.219705,0.118533 -0.4943,0.255299 -0.695696,0.392073 -0.192262,0.136777 -0.320479,0.319168 -0.512873,0.693054 -0.348123,0.665688 -0.494851,1.185517 -0.46763,1.58677 0.02725,0.410418 0.237474,0.702291 0.557852,0.893689 0.146373,0.09121 0.320056,0.155328 0.512361,0.20977 -0.356891,-0.0014 -0.722937,-0.0024 -1.088956,6.88e-4 -0.04567,-6.88e-4 -0.09158,0.05471 -0.08244,0.100292 3.55e-4,0.04556 0.05506,0.09103 0.100436,0.08228 l 1.0981,-6.88e-4 -5.2e-5,0.455985 c 1.79e-4,0.04566 0.04556,0.09122 0.09163,0.09107 l 4.383299,2.15e-4 c 0.04572,6.88e-4 0.09156,-0.04546 0.09153,-0.09114 l 6.8e-5,-0.455982 1.098132,-6.88e-4 c 0.04577,6.88e-4 0.09155,-0.04561 0.09151,-0.0912 -1.79e-4,-0.04566 -0.04556,-0.09123 -0.09162,-0.09104 l -0.814425,-0.0024 c 0.1739,-0.05477 0.320347,-0.11857 0.439383,-0.209669 0.256323,-0.19149 0.384614,-0.492457 0.375703,-0.893723 -0.0089,-0.401256 -0.145907,-0.91197 -0.401717,-1.568627 -0.136636,-0.374052 -0.274182,-0.565443 -0.466254,-0.702305 -0.256132,-0.155065 -0.521404,-0.282825 -0.713528,-0.392238 0.09156,-0.10033 0.16483,-0.209737 0.201485,-0.319161 0.05503,-0.155048 0.06427,-0.319191 0.06443,-0.556304 3.59e-4,-0.538081 -0.310436,-1.185599 -0.71273,-1.714611 -0.201157,-0.264479 -0.420629,-0.492531 -0.649314,-0.656691 -0.228668,-0.182397 -0.457411,-0.28273 -0.667872,-0.28275 z m -0.03784,2.097528 c 0.613119,0.002 1.26274,0.136983 1.857423,0.34676 0.01005,0.06369 0.01921,0.136676 0.01741,0.200692 -3.6e-4,0.227988 -0.0094,0.37391 -0.05521,0.492453 -0.03672,0.109452 -0.100791,0.200656 -0.201507,0.300937 -0.439484,0.428582 -0.997876,0.747699 -1.629283,0.747655 -0.640572,-0.0024 -1.216835,-0.437883 -1.582626,-0.793627 -0.191839,-0.209986 -0.237691,-0.364845 -0.237469,-0.756972 3.6e-4,-0.07299 0.0093,-0.145903 0.01841,-0.218869 0.640699,-0.209676 1.12576,-0.31907 1.812073,-0.319026 z m 1.8e-4,0.173238 c -0.603969,-0.002 -1.198821,0.08199 -1.372801,0.255195 -1.8e-4,0.346554 -5.29e-4,0.565433 0.338016,1.021438 0.228706,0.227984 0.567118,0.456029 1.02462,0.45612 0.457581,0.0024 0.796285,-0.227943 1.025197,-0.4559 0.338836,-0.455941 0.338974,-0.683932 0.33919,-1.021371 -0.155474,-0.173309 -0.750247,-0.255394 -1.354185,-0.255536 z m -2.097061,2.562439 4.200266,6.88e-4 -0.0016,2.462292 -4.200265,-2.14e-4 z m -0.0016,2.64471 4.200276,2.15e-4 -1.8e-4,0.364788 -4.200271,-2.15e-4 z"
       id="path10445-0-9"
       inkscape:connector-curvature="0"
       style="font-family:none;mix-blend-mode:normal;fill:#491d88;fill-opacity:1;fill-rule:nonzero;stroke:none;stroke-width:0.00233043;stroke-linecap:butt;stroke-linejoin:miter;stroke-miterlimit:10;stroke-dasharray:none;stroke-dashoffset:0" />
  </g>
</svg>
