<?xml version="1.0" encoding="UTF-8" standalone="no"?>
<!-- Created with Inkscape (http://www.inkscape.org/) -->

<svg
   width="137.62601mm"
   height="74.964996mm"
   viewBox="0 0 137.62601 74.964996"
   version="1.1"
   id="svg59233"
   inkscape:version="1.2 (dc2aedaf03, 2022-05-15)"
   sodipodi:docname="pipeline-attest.svg"
   xmlns:inkscape="http://www.inkscape.org/namespaces/inkscape"
   xmlns:sodipodi="http://sodipodi.sourceforge.net/DTD/sodipodi-0.dtd"
   xmlns="http://www.w3.org/2000/svg"
   xmlns:svg="http://www.w3.org/2000/svg">
  <sodipodi:namedview
     id="namedview59235"
     pagecolor="#ffffff"
     bordercolor="#666666"
     borderopacity="1.0"
     inkscape:showpageshadow="2"
     inkscape:pageopacity="0.0"
     inkscape:pagecheckerboard="0"
     inkscape:deskcolor="#d1d1d1"
     inkscape:document-units="mm"
     showgrid="false"
     inkscape:zoom="1.8761364"
     inkscape:cx="195.34827"
     inkscape:cy="273.70078"
     inkscape:window-width="2237"
     inkscape:window-height="2076"
     inkscape:window-x="1602"
     inkscape:window-y="46"
     inkscape:window-maximized="0"
     inkscape:current-layer="layer1" />
  <defs
     id="defs59230">
    <marker
       style="overflow:visible"
       id="Arrow3-6"
       refX="0"
       refY="0"
       orient="auto-start-reverse"
       inkscape:stockid="Arrow3"
       markerWidth="4.2071066"
       markerHeight="7"
       viewBox="0 0 4.2071068 7"
       inkscape:isstock="true"
       inkscape:collect="always"
       preserveAspectRatio="xMidYMid">
      <path
         style="fill:none;stroke:context-stroke;stroke-width:1;stroke-linecap:round"
         d="M 3,-3 0,0 3,3"
         id="arrow3-9"
         transform="rotate(180,0.125,0)"
         sodipodi:nodetypes="ccc" />
    </marker>
    <marker
       style="overflow:visible"
       id="Arrow3-6-3"
       refX="0"
       refY="0"
       orient="auto-start-reverse"
       inkscape:stockid="Arrow3"
       markerWidth="4.2071066"
       markerHeight="7"
       viewBox="0 0 4.2071068 7"
       inkscape:isstock="true"
       inkscape:collect="always"
       preserveAspectRatio="xMidYMid">
      <path
         style="fill:none;stroke:context-stroke;stroke-width:1;stroke-linecap:round"
         d="M 3,-3 0,0 3,3"
         id="arrow3-9-7"
         transform="rotate(180,0.125,0)"
         sodipodi:nodetypes="ccc" />
    </marker>
    <marker
       style="overflow:visible"
       id="Arrow3-6-3-3"
       refX="0"
       refY="0"
       orient="auto-start-reverse"
       inkscape:stockid="Arrow3"
       markerWidth="4.2071066"
       markerHeight="7"
       viewBox="0 0 4.2071068 7"
       inkscape:isstock="true"
       inkscape:collect="always"
       preserveAspectRatio="xMidYMid">
      <path
         style="fill:none;stroke:context-stroke;stroke-width:1;stroke-linecap:round"
         d="M 3,-3 0,0 3,3"
         id="arrow3-9-7-9"
         transform="rotate(180,0.125,0)"
         sodipodi:nodetypes="ccc" />
    </marker>
    <marker
       style="overflow:visible"
       id="Arrow3-6-4"
       refX="0"
       refY="0"
       orient="auto-start-reverse"
       inkscape:stockid="Arrow3"
       markerWidth="4.2071066"
       markerHeight="7"
       viewBox="0 0 4.2071068 7"
       inkscape:isstock="true"
       inkscape:collect="always"
       preserveAspectRatio="xMidYMid">
      <path
         style="fill:none;stroke:context-stroke;stroke-width:1;stroke-linecap:round"
         d="M 3,-3 0,0 3,3"
         id="arrow3-9-2"
         transform="rotate(180,0.125,0)"
         sodipodi:nodetypes="ccc" />
    </marker>
  </defs>
  <g
     inkscape:label="Layer 1"
     inkscape:groupmode="layer"
     id="layer1">
    <rect
       style="fill:#fa448c;fill-opacity:0.286275;stroke:#fa448c;stroke-width:0.958462;stroke-linecap:round;stroke-linejoin:round;stroke-dasharray:none;stroke-opacity:0.635294"
       id="rect53641-8-5"
       width="29.713373"
       height="15.729723"
       x="54.439964"
       y="21.010096" />
    <text
       xml:space="preserve"
       style="font-style:normal;font-variant:normal;font-weight:normal;font-stretch:normal;font-size:11.2889px;line-height:1.25;font-family:Roboto;-inkscape-font-specification:'Roboto, Normal';font-variant-ligatures:normal;font-variant-caps:normal;font-variant-numeric:normal;font-variant-east-asian:normal;letter-spacing:0px;word-spacing:0px;writing-mode:lr-tb;stroke-width:0.264583"
       x="9.9120665"
       y="50.053493"
       id="text59239"><tspan
         sodipodi:role="line"
         id="tspan59237"
         style="font-style:normal;font-variant:normal;font-weight:normal;font-stretch:normal;font-size:11.2889px;font-family:Roboto;-inkscape-font-specification:'Roboto, Normal';font-variant-ligatures:normal;font-variant-caps:normal;font-variant-numeric:normal;font-variant-east-asian:normal;stroke-width:0.264583"
         x="9.9120665"
         y="50.053493">Code</tspan></text>
    <rect
       style="fill:#fec859;fill-opacity:0.287633;stroke:#fec859;stroke-width:1;stroke-linecap:round;stroke-linejoin:round;stroke-dasharray:none;stroke-opacity:0.635294"
       id="rect53641-8"
       width="31.976091"
       height="33.646046"
       x="7.1173706"
       y="21.040203" />
    <text
       xml:space="preserve"
       style="font-size:11.2889px;line-height:1.25;font-family:Roboto;-inkscape-font-specification:'Roboto, Normal';letter-spacing:0px;word-spacing:0px;writing-mode:lr-tb;stroke-width:0.264583"
       x="12.422854"
       y="32.814339"
       id="text59853"><tspan
         sodipodi:role="line"
         style="stroke-width:0.264583"
         x="12.422854"
         y="32.814339"
         id="tspan60739">Libs</tspan></text>
    <text
       xml:space="preserve"
       style="font-size:11.2889px;line-height:1.25;font-family:Roboto;-inkscape-font-specification:'Roboto, Normal';letter-spacing:0px;word-spacing:0px;writing-mode:lr-tb;stroke-width:0.264583"
       x="56.400562"
       y="32.606213"
       id="text59857"><tspan
         sodipodi:role="line"
         id="tspan59855"
         style="stroke-width:0.264583"
         x="56.400562"
         y="32.606213">Build</tspan></text>
    <rect
       style="fill:#fa448c;fill-opacity:0.286275;stroke:#fa448c;stroke-width:0.958462;stroke-linecap:round;stroke-linejoin:round;stroke-dasharray:none;stroke-opacity:0.635294"
       id="rect53641-8-5-3"
       width="29.713373"
       height="15.729723"
       x="54.401325"
       y="39.403809" />
    <text
       xml:space="preserve"
       style="font-size:11.2889px;line-height:1.25;font-family:Roboto;-inkscape-font-specification:'Roboto, Normal';letter-spacing:0px;word-spacing:0px;writing-mode:lr-tb;stroke-width:0.264583"
       x="56.361927"
       y="50.999928"
       id="text59857-7"><tspan
         sodipodi:role="line"
         id="tspan59855-1"
         style="stroke-width:0.264583"
         x="56.361927"
         y="50.999928">Build</tspan></text>
    <path
       style="fill:none;stroke:#000000;stroke-width:1;stroke-linecap:butt;stroke-linejoin:miter;stroke-dasharray:none;stroke-opacity:1;marker-end:url(#Arrow3-6)"
       d="m 84.449605,29.399319 13.746573,0.07433"
       id="path59957-3"
       sodipodi:nodetypes="cc" />
    <path
       style="fill:none;stroke:#000000;stroke-width:1;stroke-linecap:butt;stroke-linejoin:miter;stroke-dasharray:none;stroke-opacity:1;marker-end:url(#Arrow3-6-3)"
       d="m 39.458876,37.924175 14.777857,-9.06598"
       id="path59957-3-4"
       sodipodi:nodetypes="cc" />
    <path
       style="fill:none;stroke:#000000;stroke-width:1;stroke-linecap:butt;stroke-linejoin:miter;stroke-dasharray:none;stroke-opacity:1;marker-end:url(#Arrow3-6-3-3)"
       d="m 39.106202,38.050745 14.777857,9.06598"
       id="path59957-3-4-6"
       sodipodi:nodetypes="cc" />
    <g
       id="g60432"
       transform="translate(2.903386,-9.769655)">
      <rect
         style="fill:#491d88;fill-opacity:0.286275;stroke:#491d88;stroke-width:1;stroke-linecap:round;stroke-linejoin:round;stroke-dasharray:none;stroke-opacity:0.635294"
         id="rect53641-8-5-8"
         width="32.430271"
         height="15.688185"
         x="95.99469"
         y="30.955311" />
      <text
         xml:space="preserve"
         style="font-size:11.2889px;line-height:1.25;font-family:Roboto;-inkscape-font-specification:'Roboto, Normal';letter-spacing:0px;word-spacing:0px;writing-mode:lr-tb;stroke-width:0.264583"
         x="101.33913"
         y="42.671337"
         id="text60405"><tspan
           sodipodi:role="line"
           id="tspan60403"
           style="stroke-width:0.264583"
           x="101.33913"
           y="42.671337">Ship</tspan></text>
    </g>
    <path
       style="fill:none;stroke:#000000;stroke-width:1;stroke-linecap:butt;stroke-linejoin:miter;stroke-dasharray:none;stroke-opacity:1;marker-end:url(#Arrow3-6-4)"
       d="m 84.352045,47.608391 13.74657,0.07433"
       id="path59957-3-0"
       sodipodi:nodetypes="cc" />
    <g
       id="g60432-2"
       transform="translate(2.8058265,8.4394175)">
      <rect
         style="fill:#491d88;fill-opacity:0.286275;stroke:#491d88;stroke-width:1;stroke-linecap:round;stroke-linejoin:round;stroke-dasharray:none;stroke-opacity:0.635294"
         id="rect53641-8-5-8-9"
         width="32.430271"
         height="15.688185"
         x="95.99469"
         y="30.955311" />
      <text
         xml:space="preserve"
         style="font-size:11.2889px;line-height:1.25;font-family:Roboto;-inkscape-font-specification:'Roboto, Normal';letter-spacing:0px;word-spacing:0px;writing-mode:lr-tb;stroke-width:0.264583"
         x="97.385109"
         y="42.515472"
         id="text60405-5"><tspan
           sodipodi:role="line"
           id="tspan60403-7"
           style="stroke-width:0.264583"
           x="97.385109"
           y="42.515472">Attest</tspan></text>
    </g>
    <text
       xml:space="preserve"
       style="font-size:11.2889px;line-height:1.25;font-family:Roboto;-inkscape-font-specification:'Roboto, Normal';letter-spacing:0px;word-spacing:0px;writing-mode:lr-tb;stroke-width:0.264583"
       x="19.20252"
       y="41.739426"
       id="text60745"><tspan
         sodipodi:role="line"
         id="tspan60743"
         style="stroke-width:0.264583"
         x="19.20252"
         y="41.739426">+</tspan></text>
  </g>
</svg>
