<?xml version="1.0" encoding="UTF-8" standalone="no"?>
<!-- Created with Inkscape (http://www.inkscape.org/) -->

<svg
   width="137.62601mm"
   height="74.964996mm"
   viewBox="0 0 137.62601 74.964996"
   version="1.1"
   id="svg4188"
   sodipodi:docname="whocares-1.svg"
   inkscape:version="1.2 (dc2aedaf03, 2022-05-15)"
   xmlns:inkscape="http://www.inkscape.org/namespaces/inkscape"
   xmlns:sodipodi="http://sodipodi.sourceforge.net/DTD/sodipodi-0.dtd"
   xmlns="http://www.w3.org/2000/svg"
   xmlns:svg="http://www.w3.org/2000/svg">
  <sodipodi:namedview
     id="namedview4190"
     pagecolor="#ffffff"
     bordercolor="#666666"
     borderopacity="1.0"
     inkscape:showpageshadow="2"
     inkscape:pageopacity="0.0"
     inkscape:pagecheckerboard="0"
     inkscape:deskcolor="#d1d1d1"
     inkscape:document-units="mm"
     showgrid="false"
     inkscape:zoom="2.6532575"
     inkscape:cx="261.18837"
     inkscape:cy="318.66489"
     inkscape:window-width="1987"
     inkscape:window-height="2076"
     inkscape:window-x="1852"
     inkscape:window-y="46"
     inkscape:window-maximized="0"
     inkscape:current-layer="layer1" />
  <defs
     id="defs4185">
    <clipPath
       id="clip-26">
      <path
         d="m 5,18.66025 c -2.5,-4.33013 -7.5,-4.33013 -10,0 l -90,155.88457 c -2.5,4.33013 0,8.66025 5,8.66025 H 90 c 5,0 7.5,-4.33013 5,-8.66025 z"
         fill="none"
         id="path114" />
    </clipPath>
    <clipPath
       id="clip-27">
      <path
         d="m -18.66025,5 c 5,0 7.5,4.33013 5,8.66025 l -90,155.88457 c -2.5,4.33013 -7.5,4.33013 -10,0 l -90,-155.88457 c -2.5,-4.33013 0,-8.66025 5,-8.66025 z"
         fill="none"
         id="path117" />
    </clipPath>
    <clipPath
       id="clip-28">
      <path
         d="m -18.66025,-5 c 5,0 7.5,-4.33013 5,-8.66025 l -90,-155.88457 c -2.5,-4.33013 -7.5,-4.33013 -10,0 l -90,155.88457 c -2.5,4.33013 0,8.66025 5,8.66025 z"
         fill="none"
         id="path120" />
    </clipPath>
    <clipPath
       id="clip-29">
      <path
         d="m 5,-18.66025 c -2.5,4.33013 -7.5,4.33013 -10,0 l -90,-155.88457 c -2.5,-4.33013 0,-8.66025 5,-8.66025 H 90 c 5,0 7.5,4.33013 5,8.66025 z"
         fill="none"
         id="path123" />
    </clipPath>
    <clipPath
       id="clip-30">
      <path
         d="m 13.66025,-13.66025 c -2.5,4.33013 0,8.66025 5,8.66025 h 180 c 5,0 7.5,-4.33013 5,-8.66025 l -90,-155.88457 c -2.5,-4.33013 -7.5,-4.33013 -10,0 z"
         fill="none"
         id="path126" />
    </clipPath>
    <clipPath
       id="clipPath52978">
      <path
         d="m 5,18.66025 c -2.5,-4.33013 -7.5,-4.33013 -10,0 l -90,155.88457 c -2.5,4.33013 0,8.66025 5,8.66025 H 90 c 5,0 7.5,-4.33013 5,-8.66025 z"
         fill="none"
         id="path52976" />
    </clipPath>
    <clipPath
       id="clipPath52982">
      <path
         d="m -18.66025,5 c 5,0 7.5,4.33013 5,8.66025 l -90,155.88457 c -2.5,4.33013 -7.5,4.33013 -10,0 l -90,-155.88457 c -2.5,-4.33013 0,-8.66025 5,-8.66025 z"
         fill="none"
         id="path52980" />
    </clipPath>
    <clipPath
       id="clipPath52986">
      <path
         d="m -18.66025,-5 c 5,0 7.5,-4.33013 5,-8.66025 l -90,-155.88457 c -2.5,-4.33013 -7.5,-4.33013 -10,0 l -90,155.88457 c -2.5,4.33013 0,8.66025 5,8.66025 z"
         fill="none"
         id="path52984" />
    </clipPath>
    <clipPath
       id="clipPath52990">
      <path
         d="m 5,-18.66025 c -2.5,4.33013 -7.5,4.33013 -10,0 l -90,-155.88457 c -2.5,-4.33013 0,-8.66025 5,-8.66025 H 90 c 5,0 7.5,4.33013 5,8.66025 z"
         fill="none"
         id="path52988" />
    </clipPath>
    <clipPath
       id="clipPath52994">
      <path
         d="m 13.66025,-13.66025 c -2.5,4.33013 0,8.66025 5,8.66025 h 180 c 5,0 7.5,-4.33013 5,-8.66025 l -90,-155.88457 c -2.5,-4.33013 -7.5,-4.33013 -10,0 z"
         fill="none"
         id="path52992" />
    </clipPath>
    <clipPath
       id="clipPath52998">
      <path
         d="m 13.66025,13.66025 c -2.5,-4.33013 0,-8.66025 5,-8.66025 h 180 c 5,0 7.5,4.33013 5,8.66025 l -90,155.88457 c -2.5,4.33013 -7.5,4.33013 -10,0 z"
         fill="none"
         id="path52996" />
    </clipPath>
    <clipPath
       clipPathUnits="userSpaceOnUse"
       id="clipPath53545">
      <path
         d="m 13.66025,13.660235 c -2.5,-4.3301298 0,-8.6602198 5,-8.6602198 h 180 c 5.00001,0 7.50001,4.33013 5.00001,8.6602198 L 113.66025,169.54481 c -2.5,4.33013 -7.5,4.33013 -10,0 z"
         fill="none"
         id="path53547"
         style="stroke-width:0.999999" />
    </clipPath>
    <clipPath
       clipPathUnits="userSpaceOnUse"
       id="clipPath53549">
      <path
         d="m 13.66025,13.660235 c -2.5,-4.3301298 0,-8.6602198 5,-8.6602198 h 180 c 5.00001,0 7.50001,4.33013 5.00001,8.6602198 L 113.66025,169.54481 c -2.5,4.33013 -7.5,4.33013 -10,0 z"
         fill="none"
         id="path53551"
         style="stroke-width:0.999999" />
    </clipPath>
    <clipPath
       clipPathUnits="userSpaceOnUse"
       id="clipPath53553">
      <path
         d="m 13.66025,13.660235 c -2.5,-4.3301298 0,-8.6602198 5,-8.6602198 h 180 c 5.00001,0 7.50001,4.33013 5.00001,8.6602198 L 113.66025,169.54481 c -2.5,4.33013 -7.5,4.33013 -10,0 z"
         fill="none"
         id="path53555"
         style="stroke-width:0.999999" />
    </clipPath>
    <clipPath
       clipPathUnits="userSpaceOnUse"
       id="clipPath53557">
      <path
         d="m 13.66025,13.660235 c -2.5,-4.3301298 0,-8.6602198 5,-8.6602198 h 180 c 5.00001,0 7.50001,4.33013 5.00001,8.6602198 L 113.66025,169.54481 c -2.5,4.33013 -7.5,4.33013 -10,0 z"
         fill="none"
         id="path53559"
         style="stroke-width:0.999999" />
    </clipPath>
    <clipPath
       clipPathUnits="userSpaceOnUse"
       id="clipPath53561">
      <path
         d="m 13.66025,13.660235 c -2.5,-4.3301298 0,-8.6602198 5,-8.6602198 h 180 c 5.00001,0 7.50001,4.33013 5.00001,8.6602198 L 113.66025,169.54481 c -2.5,4.33013 -7.5,4.33013 -10,0 z"
         fill="none"
         id="path53563"
         style="stroke-width:0.999999" />
    </clipPath>
    <clipPath
       clipPathUnits="userSpaceOnUse"
       id="clipPath53565">
      <path
         d="m 13.66025,13.660235 c -2.5,-4.3301298 0,-8.6602198 5,-8.6602198 h 180 c 5.00001,0 7.50001,4.33013 5.00001,8.6602198 L 113.66025,169.54481 c -2.5,4.33013 -7.5,4.33013 -10,0 z"
         fill="none"
         id="path53567"
         style="stroke-width:0.999999" />
    </clipPath>
    <clipPath
       clipPathUnits="userSpaceOnUse"
       id="clipPath53569">
      <path
         d="m 13.66025,13.660235 c -2.5,-4.3301298 0,-8.6602198 5,-8.6602198 h 180 c 5.00001,0 7.50001,4.33013 5.00001,8.6602198 L 113.66025,169.54481 c -2.5,4.33013 -7.5,4.33013 -10,0 z"
         fill="none"
         id="path53571"
         style="stroke-width:0.999999" />
    </clipPath>
    <clipPath
       clipPathUnits="userSpaceOnUse"
       id="clipPath53573">
      <path
         d="m 13.66025,13.660235 c -2.5,-4.3301298 0,-8.6602198 5,-8.6602198 h 180 c 5.00001,0 7.50001,4.33013 5.00001,8.6602198 L 113.66025,169.54481 c -2.5,4.33013 -7.5,4.33013 -10,0 z"
         fill="none"
         id="path53575"
         style="stroke-width:0.999999" />
    </clipPath>
    <clipPath
       clipPathUnits="userSpaceOnUse"
       id="clipPath53577">
      <path
         d="m 13.66025,13.660235 c -2.5,-4.3301298 0,-8.6602198 5,-8.6602198 h 180 c 5.00001,0 7.50001,4.33013 5.00001,8.6602198 L 113.66025,169.54481 c -2.5,4.33013 -7.5,4.33013 -10,0 z"
         fill="none"
         id="path53579"
         style="stroke-width:0.999999" />
    </clipPath>
    <clipPath
       clipPathUnits="userSpaceOnUse"
       id="clipPath53581">
      <path
         d="m 13.66025,13.660235 c -2.5,-4.3301298 0,-8.6602198 5,-8.6602198 h 180 c 5.00001,0 7.50001,4.33013 5.00001,8.6602198 L 113.66025,169.54481 c -2.5,4.33013 -7.5,4.33013 -10,0 z"
         fill="none"
         id="path53583"
         style="stroke-width:0.999999" />
    </clipPath>
    <clipPath
       clipPathUnits="userSpaceOnUse"
       id="clipPath53585">
      <path
         d="m 13.66025,13.660235 c -2.5,-4.3301298 0,-8.6602198 5,-8.6602198 h 180 c 5.00001,0 7.50001,4.33013 5.00001,8.6602198 L 113.66025,169.54481 c -2.5,4.33013 -7.5,4.33013 -10,0 z"
         fill="none"
         id="path53587"
         style="stroke-width:0.999999" />
    </clipPath>
  </defs>
  <g
     inkscape:label="Layer 1"
     inkscape:groupmode="layer"
     id="layer1"
     transform="translate(-8.0547901,-14.219194)">
    <rect
       style="fill:#fec859;fill-opacity:0.287633;stroke:#fec859;stroke-width:1;stroke-linecap:round;stroke-linejoin:round;stroke-dasharray:none;stroke-opacity:0.635294"
       id="rect53641"
       width="63.569923"
       height="74.101906"
       x="8.4547901"
       y="14.619194" />
    <text
       xml:space="preserve"
       style="font-style:normal;font-variant:normal;font-weight:normal;font-stretch:normal;font-size:8.46667px;line-height:1.25;font-family:Roboto;-inkscape-font-specification:'Roboto, Normal';font-variant-ligatures:normal;font-variant-caps:normal;font-variant-numeric:normal;font-variant-east-asian:normal;letter-spacing:0px;word-spacing:0px;writing-mode:lr-tb;stroke-width:0.264583"
       x="9.9335451"
       y="23.327276"
       id="text58535"><tspan
         sodipodi:role="line"
         id="tspan58533"
         style="font-style:normal;font-variant:normal;font-weight:normal;font-stretch:normal;font-size:8.46667px;font-family:Roboto;-inkscape-font-specification:'Roboto, Normal';font-variant-ligatures:normal;font-variant-caps:normal;font-variant-numeric:normal;font-variant-east-asian:normal;stroke-width:0.264583"
         x="9.9335451"
         y="23.327276">Developers</tspan></text>
    <rect
       style="fill:#491d88;fill-opacity:0.286275;stroke:#491d88;stroke-width:1;stroke-linecap:round;stroke-linejoin:round;stroke-dasharray:none;stroke-opacity:0.635294"
       id="rect53641-1"
       width="63.569923"
       height="74.101906"
       x="81.710831"
       y="14.682106" />
    <text
       xml:space="preserve"
       style="font-style:normal;font-variant:normal;font-weight:normal;font-stretch:normal;font-size:8.46667px;line-height:1.25;font-family:Roboto;-inkscape-font-specification:'Roboto, Normal';font-variant-ligatures:normal;font-variant-caps:normal;font-variant-numeric:normal;font-variant-east-asian:normal;letter-spacing:0px;word-spacing:0px;writing-mode:lr-tb;stroke-width:0.264583"
       x="121.55264"
       y="23.518034"
       id="text58535-3"><tspan
         sodipodi:role="line"
         id="tspan58533-3"
         style="font-style:normal;font-variant:normal;font-weight:normal;font-stretch:normal;font-size:8.46667px;font-family:Roboto;-inkscape-font-specification:'Roboto, Normal';font-variant-ligatures:normal;font-variant-caps:normal;font-variant-numeric:normal;font-variant-east-asian:normal;stroke-width:0.264583"
         x="121.55264"
         y="23.518034">Users</tspan></text>
    <path
       d="m 40.362159,39.802642 c -0.64984,-0.0018 -1.299872,0.323508 -1.976989,0.809301 -0.677155,0.485598 -1.327372,1.187105 -1.923492,1.942571 -1.192234,1.537871 -2.11396,3.480574 -2.114873,5.072555 -0.0012,1.214248 0.242572,1.888841 0.864981,2.590446 -0.650062,0.350703 -1.462527,0.755367 -2.0584,1.16005 -0.568862,0.40469 -0.948225,0.944337 -1.517475,2.050576 -1.03,1.969609 -1.464132,3.507659 -1.383592,4.69487 0.08063,1.214333 0.70263,2.077913 1.650552,2.644208 0.433077,0.269867 0.946966,0.459582 1.515945,0.620657 -1.055962,-0.0043 -2.138997,-0.0071 -3.221957,0.0019 -0.135193,-0.0025 -0.270972,0.161884 -0.243942,0.296743 0.0012,0.134791 0.162932,0.269342 0.297175,0.243454 l 3.249011,-0.0019 -1.48e-4,1.349143 c 6.17e-4,0.1351 0.134847,0.269892 0.271083,0.269454 l 12.969133,6.17e-4 c 0.135249,0.0025 0.270904,-0.134489 0.270805,-0.269645 l 1.98e-4,-1.349137 3.249104,-0.0019 c 0.135378,0.0025 0.27086,-0.134952 0.270774,-0.269836 -6.17e-4,-0.1351 -0.134872,-0.269922 -0.271089,-0.269354 l -2.40969,-0.0071 c 0.514537,-0.16205 0.947842,-0.350821 1.300033,-0.620367 0.758398,-0.566566 1.137983,-1.457053 1.11162,-2.644307 -0.02647,-1.187217 -0.431707,-2.698299 -1.188581,-4.641187 -0.40427,-1.106738 -0.811243,-1.673015 -1.379543,-2.077951 -0.757831,-0.458798 -1.542697,-0.83681 -2.111158,-1.160538 0.270904,-0.296851 0.487704,-0.620563 0.596157,-0.944328 0.162828,-0.458747 0.190166,-0.944407 0.190641,-1.645966 0.0012,-1.592053 -0.918516,-3.507905 -2.108794,-5.073123 -0.595182,-0.78253 -1.244542,-1.457274 -1.921178,-1.942988 -0.676574,-0.539673 -1.35337,-0.836532 -1.976064,-0.836586 z m -0.111951,6.206074 c 1.814063,0.0062 3.736135,0.405301 5.49567,1.025989 0.02981,0.188428 0.0569,0.404389 0.05147,0.593791 -0.0012,0.674567 -0.02783,1.106312 -0.163345,1.457052 -0.108601,0.323844 -0.298212,0.593694 -0.596207,0.890404 -1.300335,1.268068 -2.952473,2.212263 -4.820652,2.212127 -1.895301,-0.0071 -3.600332,-1.295589 -4.68262,-2.348147 -0.567609,-0.621298 -0.703265,-1.079496 -0.702611,-2.239705 0.0012,-0.215952 0.0274,-0.431692 0.05449,-0.647574 1.895666,-0.620386 3.330842,-0.944052 5.36149,-0.94392 z m 6.17e-4,0.512573 c -1.786997,-0.0062 -3.547032,0.242591 -4.061791,0.755058 -6.17e-4,1.025377 -0.0019,1.672987 1.000112,3.022191 0.676673,0.674548 1.67797,1.349283 3.031594,1.349548 1.353871,0.0071 2.356025,-0.674426 3.033316,-1.348892 1.002543,-1.349027 1.002944,-2.023594 1.003586,-3.021996 -0.460014,-0.512777 -2.219802,-0.755643 -4.0067,-0.756068 z m -6.2047,7.581642 12.427573,0.0019 -0.0043,7.285333 -12.427585,-6.17e-4 z m -0.0049,7.825062 12.42761,6.17e-4 -6.17e-4,1.079319 -12.427591,-6.17e-4 z"
       id="path10445"
       inkscape:connector-curvature="0"
       style="font-family:none;mix-blend-mode:normal;fill:#fec859;fill-rule:nonzero;stroke:none;stroke-width:0.00689521;stroke-linecap:butt;stroke-linejoin:miter;stroke-miterlimit:10;stroke-dasharray:none;stroke-dashoffset:0;fill-opacity:1" />
    <path
       d="m 113.61819,39.865554 c -0.64984,-0.0018 -1.29987,0.323508 -1.97699,0.809301 -0.67715,0.485598 -1.32737,1.187105 -1.92349,1.942571 -1.19223,1.537871 -2.11396,3.480574 -2.11487,5.072555 -0.001,1.214248 0.24257,1.888841 0.86498,2.590446 -0.65006,0.350703 -1.46253,0.755367 -2.0584,1.16005 -0.56886,0.40469 -0.94823,0.944337 -1.51747,2.050576 -1.03,1.969609 -1.46413,3.507659 -1.38359,4.69487 0.0806,1.214333 0.70263,2.077913 1.65054,2.644208 0.43308,0.269867 0.94697,0.459582 1.51595,0.620657 -1.05596,-0.0043 -2.13899,-0.0071 -3.22195,0.0019 -0.1352,-0.0025 -0.27097,0.161884 -0.24394,0.296743 0.001,0.134791 0.16293,0.269342 0.29717,0.243454 l 3.24901,-0.0019 -1.5e-4,1.349143 c 6.2e-4,0.1351 0.13485,0.269892 0.27108,0.269454 l 12.96913,6.17e-4 c 0.13525,0.0025 0.27091,-0.134489 0.27081,-0.269645 l 2e-4,-1.349137 3.2491,-0.0019 c 0.13538,0.0025 0.27086,-0.134952 0.27078,-0.269836 -6.2e-4,-0.1351 -0.13488,-0.269922 -0.27109,-0.269354 l -2.40969,-0.0071 c 0.51453,-0.16205 0.94784,-0.350821 1.30003,-0.620367 0.7584,-0.566566 1.13798,-1.457053 1.11162,-2.644307 -0.0265,-1.187217 -0.43171,-2.698299 -1.18858,-4.641187 -0.40427,-1.106738 -0.81124,-1.673015 -1.37954,-2.077951 -0.75784,-0.458798 -1.5427,-0.83681 -2.11116,-1.160538 0.2709,-0.296851 0.4877,-0.620563 0.59615,-0.944328 0.16283,-0.458747 0.19017,-0.944407 0.19065,-1.645966 10e-4,-1.592053 -0.91852,-3.507905 -2.1088,-5.073123 -0.59518,-0.78253 -1.24454,-1.457274 -1.92118,-1.942988 -0.67657,-0.539673 -1.35337,-0.836532 -1.97606,-0.836586 z m -0.11195,6.206074 c 1.81406,0.0062 3.73614,0.405301 5.49567,1.025989 0.0298,0.188428 0.0569,0.404389 0.0515,0.593791 -0.001,0.674567 -0.0278,1.106312 -0.16334,1.457052 -0.1086,0.323844 -0.29822,0.593694 -0.59621,0.890404 -1.30034,1.268068 -2.95247,2.212263 -4.82065,2.212127 -1.8953,-0.0071 -3.60033,-1.295589 -4.68262,-2.348147 -0.56761,-0.621298 -0.70327,-1.079496 -0.70261,-2.239705 0.001,-0.215952 0.0274,-0.431692 0.0545,-0.647574 1.89566,-0.620386 3.33084,-0.944052 5.36149,-0.94392 z m 6.2e-4,0.512573 c -1.787,-0.0062 -3.54703,0.242591 -4.06179,0.755058 -6.2e-4,1.025377 -0.002,1.672987 1.00011,3.022191 0.67667,0.674548 1.67797,1.349283 3.03159,1.349548 1.35387,0.0071 2.35603,-0.674426 3.03332,-1.348892 1.00254,-1.349027 1.00294,-2.023594 1.00359,-3.021996 -0.46002,-0.512777 -2.21981,-0.755643 -4.0067,-0.756068 z m -6.2047,7.581642 12.42757,0.0019 -0.004,7.285333 -12.42758,-6.17e-4 z m -0.005,7.825062 12.42761,6.17e-4 -6.2e-4,1.079319 -12.42759,-6.17e-4 z"
       id="path10445-0"
       inkscape:connector-curvature="0"
       style="font-family:none;mix-blend-mode:normal;fill:#491d88;fill-rule:nonzero;stroke:none;stroke-width:0.00689521;stroke-linecap:butt;stroke-linejoin:miter;stroke-miterlimit:10;stroke-dasharray:none;stroke-dashoffset:0;fill-opacity:1" />
  </g>
</svg>
